store_code,store,area,prefecture,tel,postal,address,brand,店名 ( English )
1103,イオンモール札幌平岡　,hokkaido,hokkaido,011-886-5405,〒0040873,北海道札幌市清田区平岡三条５-３－１　イオンモール札幌平岡１Ｆ　　　　　　　　　　　　　,"MAITRESSE,  SCOTCLUB",メトリーゼ　スコットクラブ
1104,札幌ステラプレイス　,hokkaido,hokkaido,011-209-5205,〒0600005,北海道札幌市中央区北５条西２-５　札幌ステラプレイス４Ｆ　,RADIATE,ラディエイト
1105,イオンモール札幌苗穂　　,hokkaido,hokkaido,011-782-3903,〒0070802,北海道札幌市東区東苗穂２条３-１－１　イオンモール札幌苗穂1F　　　　　　　　,SCOTCLUB,スコットクラブ
1106,イオンモール札幌発寒　　,hokkaido,hokkaido,011-666-0722,〒0638585,北海道札幌市西区発寒８条１２-1　イオンモール札幌発寒1F　　　　　　　　　,LASUD,ラシュッド
1301,イオン上磯,hokkaido,hokkaido,0138-49-9877,〒0490111,北海道北斗市七重浜４－４４－１　イオン上磯店専門店街　　　　　,LASUD,ラシュッド
1402,イオンモール苫小牧　,hokkaido,hokkaido,0144-55-9166,〒0530053,北海道苫小牧市柳町３－１－２０　イオンモール苫小牧１Ｆ　　　　　　　,LASUD,ラシュッド
1501,イオンモール釧路昭和　　,hokkaido,hokkaido,0154-51-2223,〒0840902,北海道釧路市昭和中央４－１８－１　イオンモール釧路昭和１Ｆ　　　　　　　　　　　　　　　　　,"MAITRESSE, SCOTCLUB",メトリーゼ　スコットクラブ
1502,イオン帯広　　　　　,hokkaido,hokkaido,0155-25-5338,〒0808531,北海道帯広市西４条南２０－１　イオン帯広1F　　　　　　　　,LASUD,ラシュッド
1503,イオン北見　　　　　,hokkaido,hokkaido,0157-31-2286,〒0900052,北海道北見市北進町１－１－１　イオン北見１Ｆ　　　　　　　　　　　　　　　　　　　　　　　,"LASUD, SCOTCLUB",ラシュッド　スコットクラブ
1602,イオンモール旭川西　　,hokkaido,hokkaido,0166-59-0035,〒0700823,北海道旭川市緑町２３－２１６１－３　イオンモール旭川西１Ｆ　　　　　　　　,LASUD,ラシュッド
1704,サンロード青森　　　,tohoku,aomori,0177-74-6934,〒0300845,青森県青森市緑３－９－２　サンロード青森２Ｆ　　　　　　,"LASUD, Vin",ラシュッド　ヴァン　
1711,イオンモール下田　　,tohoku,aomori,0178-50-3175,〒0392112,青森県上北郡おいらせ町中野平４０－１　イオンモール下田１Ｆ　　　　　,"MAITRESS, SCOTCLUB",メトリーゼ　スコットクラブ
1802,イオンモール秋田　　,tohoku,akita,0188-26-0136,〒0101413,秋田県秋田市御所野地蔵田１－１－１　イオンモール秋田１Ｆ　　　　　,MEDOC,メドック
1903,イオンモール盛岡　　,tohoku,iwate,019-645-5201,〒0200148,岩手県盛岡市前潟４－７－１　イオンモール盛岡１Ｆ　　　　　,PetitMaison,プチメゾン
1905,イオンモール盛岡南　,tohoku,iwate,019-636-2011,〒0200866,岩手県盛岡市本宮７－１－１　イオンモール盛岡南１Ｆ,LASUD,ラシュッド
2202,エスパル仙台　　　　　　,tohoku ,miyagi,022-267-4320,9800021,宮城県仙台市青葉区中央１－１－１　エスパル仙台本館１Ｆ,RADIATE,ラディエイト
2210,イオンモール名取,tohoku ,miyagi,022-382-0061,9811227,宮城県名取市杜せきのした５－３－１　イオンモール名取１Ｆ　　　　　,"LASUD, Vin",ラシュッド
2308,イオンモール山形南　,tohoku ,yamagata,023-645-7121,9902453,山形県山形市若宮３－７－８　イオンモール山形南１Ｆ,"LASUD, PetitMaison",ラシュッド　プチメゾン
2309,イオンモール天童　　,tohoku ,yamagata,023-651-3636,9940082,山形県天童市芳賀タウン北４－１－１　イオンモール天童1F　　　　　,LASUD,ラシュッド
2406,イオン福島　　　　　,tohoku ,fukushima,024-559-3282,9600112,福島県福島市南矢野目字西荒田５０－１７　イオン福島２Ｆ　　　　　,"CAREN, Poudre",カレン　プードル
2407,ザ・モール郡山　　　,tohoku ,fukushima,024-924-7381,9638017,福島県郡山市長者１－１－５６　ザ・モール郡山１Ｆ　　　　　　,SCOTCLUB,スコットクラブ
2504,長岡ココロ　　　　　,koshinetsu,niigata,0258-37-7063,9400061,新潟県長岡市城内町１－６１１－１　長岡駅ビルCoCoLo２Ｆ　　　　　,MAITRESSE,メトリーゼ　スコットクラブ
2507,リバーサイド千秋　　,koshinetsu,niigata,0258-28-6655,9402093,新潟県長岡市千秋２－２７８　リバーサイド千秋１Ｆ　　　　　,"LASUD, SCOTCLUB, Vin",ラシュッド　スコットクラブ
2508,イオンモール新潟南,koshinetsu,niigata,025-382-0224,9500150,新潟県新潟市江南区下早通柳田１－１－１　イオンモール新潟南１Ｆ　　　　,"LASUD, MEDOC",ラシュッド
2706,イオンモール太田,kitakantou,gunma,027-647-8638,3730808,群馬県太田市石原町８１　イオンモール太田１Ｆ　　　　　,"Vin, LASUD",ヴァン
2707,イオンモール高崎,kitakantou,gunma,027-310-9039,3703521,群馬県高崎市棟高町１４００　イオンモール高崎１Ｆ　　　　　,"LASUD, Vin",ラシュッド
2709,前橋けやきウォーク　,kitakantou,gunma,027-223-2102,3710801,群馬県前橋市文京町２－１－１　けやきウォーク前橋１Ｆ　　　　,MEDOC,メドック
2710,スマーク伊勢崎　　　,kitakantou,gunma,0270-40-0702,3792224,群馬県伊勢崎市西小保方町３６８　スマーク伊勢崎１Ｆ　　　,SCOTCLUB,スコットクラブ
2805,宇都宮インターパーク,kitakantou,gunma,028-657-0118,3210114,栃木県宇都宮市インターパーク６－１－１　FKDインターパーク１F,LASUD,ラシュッド
2901,イオンモール水戸内原,kitakantou,ibaraki,029-259-1121,3190317,茨城県水戸市内原２－１　イオンモール水戸内原1F　　　　　,"LASUD, PetitMaison",ラシュッド　プチメゾン
2903,イーアスつくば　　　,kitakantou,ibaraki,029-855-5431,3050817,茨城県つくば市研究学園５－１９　イーアスつくば１Ｆ　　　,LASUD,ラシュッド
2905,イオンモールつくば　,kitakantou,ibaraki,029-836-0074,3050071,茨城県つくば市稲岡６６－１　イオンモールつくば１F　　　　,Vin,ヴァン
3003,アトレ大森　　　　　,minamikantou,tokyo,03-3764-3273,1430016,東京都大田区大森北１－６－１６　アトレ３Ｆ　　　　　　　　　　,SCOTCLUB,スコットクラブ
3004,ららぽーと豊洲　　　,minamikantou,tokyo,03-6910-1317,1358614,東京都江東区豊洲２ー４ー９　ららぽーと豊洲２Ｆ　　　　　　　　　　　　　　　　　　　　　,FENNEL,フェンネル
4202,むさし村山　　　　　,minamikantou,tokyo,042-564-3186,2080022,東京都武蔵村山市榎１－１－３　イオンモールむさし村山１Ｆ　　,MEDOC,メドック
4401,ラゾーナ川崎　　　　,minamikantou,kanagawa,044-874-8205,2120013,神奈川県川崎市幸区堀川町７２－１　ラゾーナ川崎プラザEast２Ｆ　　　　　　　　,RADIATE,ラディエイト
4402,川崎アゼリア　　　　,minamikantou,kanagawa,044-201-7564,2100007,神奈川県川崎市川崎区駅前本町２６ー２　川崎アゼリア３１２　　　　　　,FENNEL,フェンネル
4501,ららぽーと横浜　　　,minamikantou,kanagawa,045-414-1758,2240053,神奈川県横浜市都筑区池辺町４０３５－１　ららぽーと横浜１Ｆ　　　　　　,Aga,アーガ
4504,相鉄ジョイナス　　　,minamikantou,kanagawa,045-620-9105,2200005,神奈川県横浜市西区南幸１－５－１　相鉄ジョイナス地下1階　　　　,RADIATE,ラディエイト
4602,イオンモール大和　　,minamikantou,kanagawa,046-200-3574,2420001,神奈川県大和市下鶴間１－２－１　イオンモール大和２Ｆ　　　　　,SCOTCLUB,　スコットクラブ
4603,テラスモール湘南　　,minamikantou,kanagawa,0466-38-1837,2510041,神奈川県藤沢市辻堂神台１－３－１　テラスモール湘南１Ｆ　　,LASUD,ラシュッド
4703,イオンモール幕張　　,minamikantou,chiba,043-297-0120,2610024,千葉県千葉市美浜区豊砂１－１他　イオンモール幕張新都心1F　　　,Sud et Nord,シュッド　エ　ノール
4705,イオンモール成田　　,minamikantou,chiba,0476-23-8176,2860029,千葉県成田市ウイング土屋２４　イオンモール成田１Ｆ　　　　　,MEDOC,メドック
4710,テラスモール松戸　　,minamikantou,chiba,047-710-7566,2700023,千葉県松戸市八ヶ崎２－８－１　テラスモール松戸２Ｆ　　　　　,MEDOC,メドック
4802,イオンモール浦和美園,minamikantou,saitama,048-878-6880,3368760,埼玉県さいたま市緑区美園５－５０－１　イオンモール浦和美園１Ｆ　　　,LASUD　,ラシュッド
4803,イオンモール羽生,minamikantou,saitama,048-560-0391,3480039,埼玉県羽生市川崎２－２８１－３　イオンモール羽生１Ｆ　　　　　,"CLOVE, Vin",クローブ
4806,レイクタウン,minamikantou,saitama,048-930-7389,3430828,埼玉県越谷市レイクタウン３－１－１　イオンレイクタウンmori ２Ｆ,Vin,ヴァン
4809,イオンモール春日部　,minamikantou,saitama,048-745-2057,3440122,埼玉県春日部市下柳４２０－１　イオンモール春日部１F　,LASUD,ラシュッド
4811,ららぽーと富士見　　,minamikantou,saitama,049-257-5160,3540022,埼玉県富士見市山室１－１３１３　ららぽーと富士見１Ｆ　,LASUD,ラシュッド
4812,レイクタウン,minamikantou,saitama,048-930-7227,3430828,埼玉県越谷市レイクタウン３－１－１　イオンレイクタウンmori２Ｆ,CLOVE,クローブ
4901,ピオニウォーク東松山,minamikantou,saitama,0493-81-6080,3558606,埼玉県東松山市あずま町４ー３　ピオニウォーク東松山１Ｆ１０５　　　　　　　　　　　　　　　,"LASUD, Vin",ラシュッド　ヴァン　
4902,イオンモール甲府昭和,koshinetsu,yamanashi,055-287-9893,4093852,山梨県中巨摩郡昭和町飯喰１５０５－１　イオンモール甲府昭和１Ｆ　　　,MEDOC,メドック
5001,サカエチカ　　　　　,tokai_area,aichi,052-971-1100,4600008,愛知県名古屋市中区栄３－４－６先　サカエチカ　　　　　　　　　　,Sud et Nord,シュッド　エ　ノール
5002,サカエ東　　　　　　,tokai_area,aichi,052-971-3000,4600008,愛知県名古屋市中区栄３－５－１２先　栄東地下街　　　　　　　　　　,BONCOIN,ボンコア
5003,サカエ南　　　　　　,tokai_area,aichi,052-951-0128,4600008,愛知県名古屋市中区栄３－５－１２先　栄南地下街　　　　　　　　　　,MIREPOIX,ミルポア
5006,ユニモール　　　　　,tokai_area,aichi,052-561-0080,4500002,愛知県名古屋市中村区名駅４－５－２６先　ユニモール　　　　　　　　　　,Bouchon ,ブション
5007,メイチカ　　　　　　,tokai_area,aichi,052-551-4624,4500002,愛知県　名古屋市中村区名駅３－１４－１５先　メイチカ　　　　　　　　,PHYLO,ファイロ
5008,エスカ　　　　　　　,tokai_area,aichi,052-452-2600,4530015,愛知県名古屋市中村区椿町６－９先　　　　　　　　　　　　　　　　　　　　　　　　　　　　　,"Aga, JAPAN",アーガ　ジャパン
5027,イオンモール熱田　　,tokai_area,aichi,052-884-3838,4560023,愛知県名古屋市熱田区六野１－２－１１　イオンモール熱田１Ｆ　　　　　,GRANDTABLE,グランターブル
5028,ナゴヤドーム前　　　,tokai_area,aichi,052-723-3910,4610048,愛知県名古屋市東区矢田南４－１０２－３　イオンモールナゴヤドーム前１Ｆ,LASUD,ラシュッド
5029,イオンモール大高,tokai_area,aichi,052-626-2858,4598016,愛知県名古屋市緑区南大高２－４５０　イオンモール大高１Ｆ　　　　　,"MEDOC, Vin",メドック
5030,モゾワンダーシティ,tokai_area,aichi,052-504-7381,4520817,愛知県名古屋市西区二方町４０　mozoワンダーシティ１Ｆ,"MEDOC, branche, Vin",メドック　ブランシュ
5034,イオンモール名古屋茶,tokai_area,aichi,052-301-5532,4550858,名古屋市港区西茶屋２－１１　イオンモール名古屋茶屋１Ｆ　　,MEDOC,メドック
5036,ららぽーと名古屋　　,tokai_area,aichi,052-655-5011,4550018,愛知県名古屋市港区港明２－３－２　ららぽーと名古屋みなとアクルス１階,Cle,クレ
5313,イオンモール志都呂　,tokai_area,aichi,053-415-1195,4328069,静岡県浜松市西区志都呂２－３７－１　イオンモール浜松志都呂１Ｆ　　,MEDOC,メドック
5314,イオンモール浜松,tokai_area,shizuoka,053-467-2025,4350052,静岡県浜松市東区天王町字諏訪１９８１－３　イオンモール浜松市野１Ｆ　　　,"LASUD, Vin",ラシュッド
5403,アピタ静岡　　　　　,tokai_area,shizuoka,054-202-2360,4228042,静岡県静岡市駿河区石田１－５－１　アピタ静岡２Ｆ　　　　　　　　,"LASUD,  SCOTCLUB",ラシュッド　スコットクラブ
5501,ららぽーと沼津　　　,tokai_area,shizuoka,055-957-6657,4100302,静岡県沼津市東椎路字東荒３０１－３　ららぽーと沼津１Ｆ　　　　　　,Vin,ヴァン
5623,イオンモール岡崎,tokai_area,aichi,0564-30-3998,4440840,愛知県岡崎市戸崎町外山３８－５　イオンモール岡崎２Ｆ　　,"Vin, LASUD, CLOVE",ヴァン
5624,イオン三好　　　　　,tokai_area,aichi,0561-33-3127,4700224,愛知県みよし市三好町青木８８番地　アイモール三好１Ｆ　　　　　　,SCOTCLUB,スコットクラブ
5626,アピタ長久手　　　　,tokai_area,aichi,0561-61-3608,4801124,愛知県長久手市戸田谷９０１番地　アピタ長久手１Ｆ　　　　　　　,FENNEL,フェンネル
5628,イオンモール東浦　　,tokai_area,aichi,0562-82-2755,4702102,愛知県知多郡東浦町大字緒川字旭１３－２　イオンモール東浦１Ｆ　　　　　,MEDOC,メドック
5632,イオンモール長久手,tokai_area,aichi,0561-76-4433,4801100,長久手市長久手中央土地区画整理事業地内５・１０・１１街区　イオンモール長久手２Ｆ　　　　,CLOVE,クローブ
5633,長久手コンディモン　,tokai_area,aichi,0561-76-3300,4801130,長久手市長久手中央土地区画整理事業地内５・１０・１１街区　イオンモール長久手２Ｆ　　　　,CONDIMENT,コンディモン
5826,カラフルタウン　　　,tokai_area,gifu ,058-388-5465,5016115,岐阜県岐阜市柳津町丸野３－３－６　カラフルタウン２Ｆ　　　　　　,SCOTCLUB,スコットクラブ
5828,イオンモール木曽川　,tokai_area,aichi,0586-84-1388,4930001,愛知県一宮市木曽川町黒田字南八ツケ池２５－１　イオンモール木曽川２Ｆ　　　　,"LASUD, GRANDTABLE",ラシュッド　グランターブル
5829,イオンモール大垣　　,tokai_area,gifu ,0584-87-3425,5030933,岐阜県大垣市外野２－１００　イオンモール大垣１Ｆ　　　　　,LASUD,ラシュッド
5830,イオンモール各務原　,tokai_area,gifu ,058-375-3674,5040943,岐阜県各務原市那加萱場町３－８　イオンモール各務原１Ｆ　　　　,MEDOC,メドック
5911,イオンモール桑名　　,tokai_area,triple,0594-25-9950,5110863,三重県桑名市新西方１－２２　イオンモール桑名一番街アンク専門店街　,Vin,ヴァン
5912,イオンモール鈴鹿　　,tokai_area,triple,059-375-0529,5130834,三重県鈴鹿市庄野羽山４－１－２　イオンモール鈴鹿１Ｆ　　　　　,MEDOC,メドック
5915,イオンモール東員　　,tokai_area,triple,0594-75-0681,5110255,三重県員弁郡東員町大字長深字築田５１０－１　イオンモール東員1F　　　　　　,LASUD,ラシュッド
5916,アピタ松阪三雲　　　　　,tokai_area,triple,0598-56-7568,5152121,三重県松阪市市場庄町１２６６－１　アピタ松阪三雲２Ｆ　　　　　　　　,SCOTCLUB　,スコットクラブ
6008,イオンモール大日　　,kansai,osaka ,06-6907-6260,5700016,大阪府守口市大日東町１－１８　イオンモール大日２F　　　　　　,LASUD,ラシュッド
6009,阪神梅田本店　　　　　,kansai,osaka ,06-6345-0721,5308224,大阪府大阪市北区梅田１－１３－１３　阪神梅田本店４Ｆ,Aga,アーガ
7205,イオンモール伊丹　　,kansai,hyogo,072-778-3555,6640847,兵庫県伊丹市藤ノ木１－１－１　イオンモ－ル伊丹２Ｆ　　　　　,LASUD,ラシュッド
7207,イオンモール泉南　　,kansai,osaka ,0724-84-5670,5900535,大阪府泉南市りんくう南浜３－１　イオンモールりんくう泉南１Ｆ　,PetitMaison,プチメゾン
7303,イオンモール和歌山　,kansai,wakayama,073-453-8990,6408451,和歌山県和歌山市中字楠谷５７３　イオンモール和歌山２F　　　　　　　　　　　　　　　　　　,LASUD,ラシュッド
7401,イオンモール橿原　　,kansai,ara,0744-25-2812,6340837,奈良県橿原市曲川町７－２０－１　イオンモール橿原１Ｆ　　　　,Vin,ヴァン
7402,イオンモール大和郡山,kansai,ara,0743-53-3547,6391101,奈良県大和郡山市下三橋町７４１　イオンモール大和郡山１Ｆ,LASUD,ラシュッド
7614,イオンモール高岡　　,hokuriku,toyama,0766-27-2805,9330813,富山県高岡市下伏間江３８３　イオンモール高岡１F　　　　　,SCOTCLUB,スコットクラブ
7615,イオンモールかほく　,hokuriku,ishikawa,076-289-1353,9291198,石川県かほく市内日角タ２５　イオンモールかほく １Ｆ　,LASUD,ラシュッド
7616,金沢フォーラス　　　,hokuriku,ishikawa,076-265-8263,9200849,石川県金沢市堀川新町３－１　金沢フォーラス２Ｆ　　　,RADIATE,ラディエイト
7617,イオンモール新小松　,hokuriku,ishikawa,0761-58-2773,9238565,石川県小松市清六町３１５　イオンモール新小松１F　　　　　　　　　　　　　　　　　　　,LASUD,ラシュッド
7704,アピタ福井大和田　　,hokuriku,fukui,0776-57-2138,9100836,福井県福井市大和田２－１２３０　アピタ福井大和田２Ｆ　　　　,"MAITRESSE, SCOTCLUB　",メトリーゼ　スコットクラブ
7705,イオンモール草津,kansai,shiga,077-599-5127,5250067,滋賀県草津市新浜町３００　イオンモール草津１Ｆ　　,LASUD,ラシュッド
7801,ミント神戸　　　　　,kansai,hyogo,078-232-4002,6510096,兵庫県神戸市中央区雲井通７－１－１　ミント神戸３F　　　　,Aga,アーガ
7901,阪急西宮ガーデンズ　,kansai,hyogo,0798-78-3611,6638204,兵庫県西宮市高松町１４－２　阪急西宮ガーデンズ 2F　　　　　　,Aga,アーガ
7902,イオンモール姫路リバーシティ,kansai,hyogo,079-231-5018,6728064,兵庫県姫路市飾磨区細江２５６０　イオンモール姫路リバーシティー1F,SCOTCLUB,スコットクラブ
7905,イオンモール神戸北,kansai,hyogo,078-983-3253,6511515,兵庫県神戸市北区上津台８－１－１　イオンモール神戸北１Ｆ　　　　,PetitMaison,プチメゾン
8202,イオンモール広島府中,chugoku,hiroshima,082-284-5753,7358588,広島県安芸郡府中町大須２－１－１　イオンモール広島府中１Ｆ　　　,MEDOC,メドック
8203,ゆめタウン広島　　　,chugoku,hiroshima,082-252-8339,7340007,広島県広島市南区皆実町２－８－１７　ゆめタウン広島1F　　　　　　　,SCOTCLUB,スコットクラブ
8205,ゆめタウン廿日市　　,chugoku,chugoku,0829-30-7224,7380023,広島県廿日市市下平良２－２－１　ゆめタウン廿日市１Ｆ　,"LASUD, Vin　",ラシュッド　ヴァン　
8206,広島ＬＥＣＴ　　　　,chugoku,chugoku,082-961-6328,7330831,広島県広島市西区扇２－１－４５　　ＬＥＣＴ2F　　　　　　　　,Sud et Nord,シュッド　エ　ノール
8404,ポ－トプラザ福山　　,chugoku,chugoku,084-971-1064,7200801,広島県福山市入船町３－１－２５　天満屋ハピータウンポートプラザ１Ｆ　　　　　　　,Vin,ヴァン
8602,イオンモール倉敷　　,chugoku,okayama,086-425-5601,7108560,岡山県倉敷市水江１　イオンモール倉敷１F　　　　,LASUD,ラシュッド
8603,イオンモール岡山　　,chugoku,okayama,086-206-7081,7000907,岡山県岡山市北区下石井１－２－１　イオンモール岡山２Ｆ　　　　　,CLOVE,クローブ
8701,ゆめタウン高松　　　,shikoku,kagawa ,087-868-5295,7618072,香川県高松市三条町字中所６０８－１　ゆめタウン高松２Ｆ　　　　　　,"MAITRESSE,  SCOTCLUB",メトリーゼ　スコットクラブ
8702,イオンモール高松　　,shikoku,kagawa ,087-882-7337,7618012,香川県高松市香西本町１－１　イオンモール高松１Ｆ　　　　　,LASUD,ラシュッド
8703,イオンモール綾川　　,shikoku,kagawa ,087-876-5880,7612304,香川県綾歌郡綾川町萱原字下所８８２－１　イオンモール綾川１F　　　　　　　,PetitMaison,プチメゾン
8804,イオンモール高知　　,shikoku,kochi,088-826-8046,7800026,高知県高知市秦南町１丁目４－８　イオンモール高知１Ｆ　　　　　　　　　　　　　　　　　,"MAITRESSE,  SCOTCLUB　",メトリーゼ　スコットクラブ
8806,ゆめタウン徳島　　　,shikoku,tokushima ,088-692-5106,7711202,徳島県板野郡藍住町奥野東中須８８－１　ゆめタウン徳島１Ｆ　　,"LASUD, PetitMaison, Pechincher",ラシュッド　プチメゾン　ペシンシャ
8807,イオンモール徳島　　,shikoku,tokushima ,088-676-3102,7700865,徳島県徳島市南末広町４－１　イオンモール徳島１F　　,Vin,ヴァン
8901,イオンモール新居浜　,shikoku,atago,0897-31-0553,7920007,愛媛県新居浜市前田町８－８　イオンモール新居浜１Ｆ　　　　,SCOTCLUB,スコットクラブ
8902,エミフル松前,shikoku,atago,089-985-5252,7913120,愛媛県伊予郡松前町大字筒井８５０　エミフル松前１Ｆ　　　　　　　,"LASUD, Vin",ラシュッド
9204,ゆめタウン博多　　　,kyushu_area,fukuoka ,092-632-3090,8120055,福岡県福岡市東区東浜１－１－１　ゆめタウン博多１Ｆ　　　　　　,"SCOTCLUB, MAITRESSE　",スコットクラブ　メトリーゼ
9205,イオンモール福岡　　,kyushu_area,fukuoka ,092-939-7522,8112303,福岡県糟屋郡粕屋町大字酒殿字老ノ木１９２－１　イオンモール福岡１Ｆ　　　　　,LASUD,ラシュッド
9206,イオンモール筑紫野,kyushu_area,fukuoka ,092-929-6261,8180042,福岡県筑紫野市立明寺４３４－１　イオンモール筑紫野１F,LASUD,ラシュッド
9304,アミュプラザ小倉　　,kyushu_area,fukuoka ,093-512-1002,8020001,福岡県北九州市小倉北区浅野１－１－１　アミュプラザ小倉東館３Ｆ　　　,RADIATE,ラディエイト
9402,ゆめタウン久留米　　,kyushu_area,fukuoka ,0942-45-7150,8390865,福岡県久留米市新合川１－２－１　ゆめタウン久留米１Ｆ　　　　　,MEDOC,メドック
9403,イオンモール直方　　,kyushu_area,fukuoka ,0949-29-2535,8220008,福岡県直方市大字感田字湯ノ原２－１－１　イオンモール直方１F　　　　　,LASUD,ラシュッド
9502,ゆめタウン佐賀　　　,kyushu_area,saga ,0952-33-8507,8490915,佐賀市兵庫北５－１４－１号ゆめタウン佐賀１Ｆ　　　　　　,MEDOC,メドック
9503,夢彩都長崎　　　　　,kyushu_area,nagasaki,095-829-1611,8500035,長崎県長崎市元船町１０－１　ゆめタウン夢彩都１F　　　　　　　　　　　,LASUD,ラシュッド
9604,ゆめタウンはません　,kyushu_area,kumamoto,096-370-5161,8620965,熊本県熊本市南区田井島１－２－１　ゆめタウンはません１Ｆ　　　　,"MAITRESSE, SCOTCLUB　",メトリーゼ　スコットクラブ
9605,ゆめタウン光の森,kyushu_area,kumamoto,096-233-1388,8691101,熊本県菊池郡菊陽町光の森７－３３－１　ゆめタウン光の森１Ｆ　　　　　,SCOTCLUB CLOVE,スコットクラブ
9606,イオンモール熊本　　,kyushu_area,kumamoto,096-237-4535,8613106,熊本県上益城郡嘉島町大字上島字長池２２３２　イオンモール熊本１Ｆ　　　　　,LASUD,ラシュッド
9702,パークプレイス大分　,kyushu_area,oita ,097-520-7801,8700174,大分県大分市公園通り２－１　パークプレイス大分１Ｆ　,SCOTCLUB,スコットクラブ
9703,アミュプラザ大分　　,kyushu_area,oita ,097-578-7440,8700831,大分市要町１－１４　アミュプラザ大分１Ｆ　　　　　　　　　　　　　　　　,RADIATE,ラディエイト
9807,イオン那覇　　　　　,okinawa,okinawa,098-858-5532,9010155,沖縄県那覇市金城５－１０－２　イオン那覇　　　　　　　　　　,SOFIA,ソフィア
9809,イオン具志川　　　　,okinawa,okinawa,098-973-0850,9042235,沖縄県うるま市字前原幸崎原３０３　イオン具志川１Ｆ　　　　　　　　　　　　　　　　　　,"MAITRESSE, SCOTCLUB",メトリーゼ　スコットクラブ
9810,那覇メインプレイス　,okinawa,okinawa,098-951-3331,9000006,沖縄県那覇市おもろまち４－４－９　那覇メインプレイス１Ｆ　　　　,"CAREN, GRANDTABLE",カレン　グランターブル
9812,イオン南風原　　　　,okinawa,okinawa,098-940-6163,9011104,沖縄県島尻郡南風原町字宮平２６４　イオン南風原１Ｆ　　　　,PetitMaison,プチメゾン
9813,イオンモール宮崎,kyushu_area,miyazaki,0985-60-8050,8800834,宮崎県宮崎市新別府町江口８６２－１　イオンモール宮崎１Ｆ　　　　　,"Vin, LASUD",ヴァン
9815,沖縄ライカム　　　　,kyushu_area,miyazaki,098-923-5929,9012306,沖縄県中頭郡北中城村字ライカム１　イオンモール沖縄ライカム２Ｆ　,Vin,ヴァン
9816,サンエーパルコシティ,okinawa,okinawa,098-943-2232,9012123,沖縄県浦添市西洲３－１－１　サンエーパルコシティー２Ｆ　　　　　　　　　　,MEDOC,メドック
9902,鹿児島カレン　　　　,kyushu_area,kagoshima,099-222-4984,8920827,鹿児島県鹿児島市中町２－６　松屋ビル１Ｆ　　　　　　　　　,CAREN,カレン
9903,アミュプラザ鹿児島,kyushu_area,kagoshima,099-206-0560,8900053,鹿児島県鹿児島市中央町１－１　アミュプラザ鹿児島２Ｆ　　　　,"RADIATE, Bouchon",ラディエイト
9904,イオンモール鹿児島　,kyushu_area,kagoshima,099-263-1957,8910115,鹿児島県鹿児島市東開町７　イオンモール鹿児島１Ｆ　　　　,Vin,ヴァン