post_title,area,prefecture,recruit_address,recruit_job_type,recruit_job_description,employment_status,recruit_salary,recruit_qualification,recruit_working_day,recruit_working_time,recruit_welfare,recruit_application_method,recruit_contact,recruit_page_type,post_type,post_status
イオンモール札幌平岡　「MAITRESSE・SCOTCLUB」,hokkaido,hokkaido,北海道札幌市清田区平岡三条５-３－１　イオンモール札幌平岡１Ｆ　　　　　　　　　　　　　,Fashion advisor,レディスアパレル・アクセサリー・ファッション雑貨の接客販売を中心に、商品整理やディスプレイの変更補助など、店舗業務全般に携わっていただきます。, parttime_work,時給９００円～,高卒以上、年齢不問、経験不問、長期勤務できる方歓迎、学生・フリーター歓迎、扶養内勤務OK,応相談、シフト自己申告制（1カ月単位）、週３日～勤務OK、平日のみ勤務OK、土日祝のみ勤務OK,8:30~21:00、１５時まで勤務OK、夕方～閉店まで勤務OK、実働５時間～勤務歓迎,"スタッフ割引あり、昇給あり、報奨金制度あり、社員登用制度あり、交通費支給（1,000円／日）、
※車通勤の可否は店舗により異なりますので詳しくはお問い合わせください。
ノルマなし、服装・髪型・ネイル自由（ショップの雰囲気に合っていれば着用ブランドは問いません）",応募フォームまたは希望店舗へお電話にてご応募ください。,"希望店舗または下記までお電話ください。
052-531-9143（本社採用課）",part_time,recruit_detail,publish
札幌ステラプレイス　「Radiate」,hokkaido,hokkaido,北海道札幌市中央区北５条西２-５　札幌ステラプレイス４Ｆ　,Fashion advisor,レディスアパレル・アクセサリー・ファッション雑貨の接客販売を中心に、商品整理やディスプレイの変更補助など、店舗業務全般に携わっていただきます。, parttime_work,時給９００円～,高卒以上、年齢不問、経験不問、長期勤務できる方歓迎、学生・フリーター歓迎、扶養内勤務OK,応相談、シフト自己申告制（1カ月単位）、週３日～勤務OK、平日のみ勤務OK、土日祝のみ勤務OK,9:30~21:00、１５時まで勤務OK、夕方～閉店まで勤務OK、実働５時間～勤務歓迎,"スタッフ割引あり、昇給あり、報奨金制度あり、社員登用制度あり、交通費支給（1,000円／日）、
※車通勤の可否は店舗により異なりますので詳しくはお問い合わせください。
ノルマなし、服装・髪型・ネイル自由（ショップの雰囲気に合っていれば着用ブランドは問いません）",応募フォームまたは希望店舗へお電話にてご応募ください。,"希望店舗または下記までお電話ください。
052-531-9143（本社採用課）",part_time,recruit_detail,publish
イオンモール札幌苗穂　「SCOTCLUB」,hokkaido,hokkaido,北海道札幌市東区東苗穂２条３-１－１　イオンモール札幌苗穂1F　　　　　　　　,Fashion advisor,レディスアパレル・アクセサリー・ファッション雑貨の接客販売を中心に、商品整理やディスプレイの変更補助など、店舗業務全般に携わっていただきます。, parttime_work,時給９００円～,高卒以上、年齢不問、経験不問、長期勤務できる方歓迎、学生・フリーター歓迎、扶養内勤務OK,応相談、シフト自己申告制（1カ月単位）、週３日～勤務OK、平日のみ勤務OK、土日祝のみ勤務OK,8:30~21:00、１５時まで勤務OK、夕方～閉店まで勤務OK、実働５時間～勤務歓迎,"スタッフ割引あり、昇給あり、報奨金制度あり、社員登用制度あり、交通費支給（1,000円／日）、
※車通勤の可否は店舗により異なりますので詳しくはお問い合わせください。
ノルマなし、服装・髪型・ネイル自由（ショップの雰囲気に合っていれば着用ブランドは問いません）",応募フォームまたは希望店舗へお電話にてご応募ください。,"希望店舗または下記までお電話ください。
052-531-9143（本社採用課）",part_time,recruit_detail,publish
イオンモール札幌発寒　「LASUD」,hokkaido,hokkaido,北海道札幌市西区発寒８条１２-1　イオンモール札幌発寒1F　　　　　　　　　,Fashion advisor,レディスアパレル・アクセサリー・ファッション雑貨の接客販売を中心に、商品整理やディスプレイの変更補助など、店舗業務全般に携わっていただきます。, parttime_work,時給９００円～,高卒以上、年齢不問、経験不問、長期勤務できる方歓迎、学生・フリーター歓迎、扶養内勤務OK,応相談、シフト自己申告制（1カ月単位）、週３日～勤務OK、平日のみ勤務OK、土日祝のみ勤務OK,8:30~21:00、１５時まで勤務OK、夕方～閉店まで勤務OK、実働５時間～勤務歓迎,"スタッフ割引あり、昇給あり、報奨金制度あり、社員登用制度あり、交通費支給（1,000円／日）、
※車通勤の可否は店舗により異なりますので詳しくはお問い合わせください。
ノルマなし、服装・髪型・ネイル自由（ショップの雰囲気に合っていれば着用ブランドは問いません）",応募フォームまたは希望店舗へお電話にてご応募ください。,"希望店舗または下記までお電話ください。
052-531-9143（本社採用課）",part_time,recruit_detail,publish
イオン上磯　「LASUD」,hokkaido,hokkaido,北海道北斗市七重浜４－４４－１　イオン上磯店専門店街　　　　　,Fashion advisor,レディスアパレル・アクセサリー・ファッション雑貨の接客販売を中心に、商品整理やディスプレイの変更補助など、店舗業務全般に携わっていただきます。, parttime_work,時給９００円～,高卒以上、年齢不問、経験不問、長期勤務できる方歓迎、学生・フリーター歓迎、扶養内勤務OK,応相談、シフト自己申告制（1カ月単位）、週３日～勤務OK、平日のみ勤務OK、土日祝のみ勤務OK,8:30~21:00、１５時まで勤務OK、夕方～閉店まで勤務OK、実働５時間～勤務歓迎,"スタッフ割引あり、昇給あり、報奨金制度あり、社員登用制度あり、交通費支給（1,000円／日）、
※車通勤の可否は店舗により異なりますので詳しくはお問い合わせください。
ノルマなし、服装・髪型・ネイル自由（ショップの雰囲気に合っていれば着用ブランドは問いません）",応募フォームまたは希望店舗へお電話にてご応募ください。,"希望店舗または下記までお電話ください。
052-531-9143（本社採用課）",part_time,recruit_detail,publish
イオンモール苫小牧　「LASUD」,hokkaido,hokkaido,北海道苫小牧市柳町３－１－２０　イオンモール苫小牧１Ｆ　　　　　　　,Fashion advisor,レディスアパレル・アクセサリー・ファッション雑貨の接客販売を中心に、商品整理やディスプレイの変更補助など、店舗業務全般に携わっていただきます。, parttime_work,時給９００円～,高卒以上、年齢不問、経験不問、長期勤務できる方歓迎、学生・フリーター歓迎、扶養内勤務OK,応相談、シフト自己申告制（1カ月単位）、週３日～勤務OK、平日のみ勤務OK、土日祝のみ勤務OK,8:30~21:00、１５時まで勤務OK、夕方～閉店まで勤務OK、実働５時間～勤務歓迎,"スタッフ割引あり、昇給あり、報奨金制度あり、社員登用制度あり、交通費支給（1,000円／日）、
※車通勤の可否は店舗により異なりますので詳しくはお問い合わせください。
ノルマなし、服装・髪型・ネイル自由（ショップの雰囲気に合っていれば着用ブランドは問いません）",応募フォームまたは希望店舗へお電話にてご応募ください。,"希望店舗または下記までお電話ください。
052-531-9143（本社採用課）",part_time,recruit_detail,publish
イオンモール釧路昭和　「MAITRESSE・SCOTCLUB」,hokkaido,hokkaido,北海道釧路市昭和中央４－１８－１　イオンモール釧路昭和１Ｆ　　　　　　　　　　　　　　　　　,Fashion advisor,レディスアパレル・アクセサリー・ファッション雑貨の接客販売を中心に、商品整理やディスプレイの変更補助など、店舗業務全般に携わっていただきます。, parttime_work,時給９００円～,高卒以上、年齢不問、経験不問、長期勤務できる方歓迎、学生・フリーター歓迎、扶養内勤務OK,応相談、シフト自己申告制（1カ月単位）、週３日～勤務OK、平日のみ勤務OK、土日祝のみ勤務OK,8:30~21:00、１５時まで勤務OK、夕方～閉店まで勤務OK、実働５時間～勤務歓迎,"スタッフ割引あり、昇給あり、報奨金制度あり、社員登用制度あり、交通費支給（1,000円／日）、
※車通勤の可否は店舗により異なりますので詳しくはお問い合わせください。
ノルマなし、服装・髪型・ネイル自由（ショップの雰囲気に合っていれば着用ブランドは問いません）",応募フォームまたは希望店舗へお電話にてご応募ください。,"希望店舗または下記までお電話ください。
052-531-9143（本社採用課）",part_time,recruit_detail,publish
イオン帯広　「LASUD」,hokkaido,hokkaido,北海道帯広市西４条南２０－１　イオン帯広1F　　　　　　　　,Fashion advisor,レディスアパレル・アクセサリー・ファッション雑貨の接客販売を中心に、商品整理やディスプレイの変更補助など、店舗業務全般に携わっていただきます。, parttime_work,時給９００円～,高卒以上、年齢不問、経験不問、長期勤務できる方歓迎、学生・フリーター歓迎、扶養内勤務OK,応相談、シフト自己申告制（1カ月単位）、週３日～勤務OK、平日のみ勤務OK、土日祝のみ勤務OK,8:30~21:00、１５時まで勤務OK、夕方～閉店まで勤務OK、実働５時間～勤務歓迎,"スタッフ割引あり、昇給あり、報奨金制度あり、社員登用制度あり、交通費支給（1,000円／日）、
※車通勤の可否は店舗により異なりますので詳しくはお問い合わせください。
ノルマなし、服装・髪型・ネイル自由（ショップの雰囲気に合っていれば着用ブランドは問いません）",応募フォームまたは希望店舗へお電話にてご応募ください。,"希望店舗または下記までお電話ください。
052-531-9143（本社採用課）",part_time,recruit_detail,publish
イオン北見　「LASUD・SCOTCLUB」,hokkaido,hokkaido,北海道北見市北進町１－１－１　イオン北見１Ｆ　　　　　　　　　　　　　　　　　　　　　　　,Fashion advisor,レディスアパレル・アクセサリー・ファッション雑貨の接客販売を中心に、商品整理やディスプレイの変更補助など、店舗業務全般に携わっていただきます。, parttime_work,時給９００円～,高卒以上、年齢不問、経験不問、長期勤務できる方歓迎、学生・フリーター歓迎、扶養内勤務OK,応相談、シフト自己申告制（1カ月単位）、週３日～勤務OK、平日のみ勤務OK、土日祝のみ勤務OK,8:30~21:00、１５時まで勤務OK、夕方～閉店まで勤務OK、実働５時間～勤務歓迎,"スタッフ割引あり、昇給あり、報奨金制度あり、社員登用制度あり、交通費支給（1,000円／日）、
※車通勤の可否は店舗により異なりますので詳しくはお問い合わせください。
ノルマなし、服装・髪型・ネイル自由（ショップの雰囲気に合っていれば着用ブランドは問いません）",応募フォームまたは希望店舗へお電話にてご応募ください。,"希望店舗または下記までお電話ください。
052-531-9143（本社採用課）",part_time,recruit_detail,publish
イオンモール旭川西　「LASUD」,hokkaido,hokkaido,北海道旭川市緑町２３－２１６１－３　イオンモール旭川西１Ｆ　　　　　　　　,Fashion advisor,レディスアパレル・アクセサリー・ファッション雑貨の接客販売を中心に、商品整理やディスプレイの変更補助など、店舗業務全般に携わっていただきます。, parttime_work,時給９００円～,高卒以上、年齢不問、経験不問、長期勤務できる方歓迎、学生・フリーター歓迎、扶養内勤務OK,応相談、シフト自己申告制（1カ月単位）、週３日～勤務OK、平日のみ勤務OK、土日祝のみ勤務OK,8:30~21:00、１５時まで勤務OK、夕方～閉店まで勤務OK、実働５時間～勤務歓迎,"スタッフ割引あり、昇給あり、報奨金制度あり、社員登用制度あり、交通費支給（1,000円／日）、
※車通勤の可否は店舗により異なりますので詳しくはお問い合わせください。
ノルマなし、服装・髪型・ネイル自由（ショップの雰囲気に合っていれば着用ブランドは問いません）",応募フォームまたは希望店舗へお電話にてご応募ください。,"希望店舗または下記までお電話ください。
052-531-9143（本社採用課）",part_time,recruit_detail,publish
サンロード青森　「LASUD・Vin」,tohoku ,aomori,青森県青森市緑３－９－２　サンロード青森２Ｆ　　　　　　,Fashion advisor,レディスアパレル・アクセサリー・ファッション雑貨の接客販売を中心に、商品整理やディスプレイの変更補助など、店舗業務全般に携わっていただきます。, parttime_work,時給９００円～,高卒以上、年齢不問、経験不問、長期勤務できる方歓迎、学生・フリーター歓迎、扶養内勤務OK,応相談、シフト自己申告制（1カ月単位）、週３日～勤務OK、平日のみ勤務OK、土日祝のみ勤務OK,9:30~20:00、１５時まで勤務OK、夕方～閉店まで勤務OK、実働５時間～勤務歓迎,"スタッフ割引あり、昇給あり、報奨金制度あり、社員登用制度あり、交通費支給（1,000円／日）、
※車通勤の可否は店舗により異なりますので詳しくはお問い合わせください。
ノルマなし、服装・髪型・ネイル自由（ショップの雰囲気に合っていれば着用ブランドは問いません）",応募フォームまたは希望店舗へお電話にてご応募ください。,"希望店舗または下記までお電話ください。
052-531-9143（本社採用課）",part_time,recruit_detail,publish
イオンモール下田　「MAITRESSE・SCOTCLUB」,tohoku ,aomori,青森県上北郡おいらせ町中野平４０－１　イオンモール下田１Ｆ　　　　　,Fashion advisor,レディスアパレル・アクセサリー・ファッション雑貨の接客販売を中心に、商品整理やディスプレイの変更補助など、店舗業務全般に携わっていただきます。, parttime_work,時給９００円～,高卒以上、年齢不問、経験不問、長期勤務できる方歓迎、学生・フリーター歓迎、扶養内勤務OK,応相談、シフト自己申告制（1カ月単位）、週３日～勤務OK、平日のみ勤務OK、土日祝のみ勤務OK,8:30~21:00、１５時まで勤務OK、夕方～閉店まで勤務OK、実働５時間～勤務歓迎,"スタッフ割引あり、昇給あり、報奨金制度あり、社員登用制度あり、交通費支給（1,000円／日）、
※車通勤の可否は店舗により異なりますので詳しくはお問い合わせください。
ノルマなし、服装・髪型・ネイル自由（ショップの雰囲気に合っていれば着用ブランドは問いません）",応募フォームまたは希望店舗へお電話にてご応募ください。,"希望店舗または下記までお電話ください。
052-531-9143（本社採用課）",part_time,recruit_detail,publish
イオンモール秋田　「MEDOC」,tohoku ,akita,秋田県秋田市御所野地蔵田１－１－１　イオンモール秋田１Ｆ　　　　　,Fashion advisor,レディスアパレル・アクセサリー・ファッション雑貨の接客販売を中心に、商品整理やディスプレイの変更補助など、店舗業務全般に携わっていただきます。, parttime_work,時給９００円～,高卒以上、年齢不問、経験不問、長期勤務できる方歓迎、学生・フリーター歓迎、扶養内勤務OK,応相談、シフト自己申告制（1カ月単位）、週３日～勤務OK、平日のみ勤務OK、土日祝のみ勤務OK,8:30~21:00、１５時まで勤務OK、夕方～閉店まで勤務OK、実働５時間～勤務歓迎,"スタッフ割引あり、昇給あり、報奨金制度あり、社員登用制度あり、交通費支給（1,000円／日）、
※車通勤の可否は店舗により異なりますので詳しくはお問い合わせください。
ノルマなし、服装・髪型・ネイル自由（ショップの雰囲気に合っていれば着用ブランドは問いません）",応募フォームまたは希望店舗へお電話にてご応募ください。,"希望店舗または下記までお電話ください。
052-531-9143（本社採用課）",part_time,recruit_detail,publish
イオンモール盛岡　「Petit Maison」,tohoku ,iwate,岩手県盛岡市前潟４－７－１　イオンモール盛岡１Ｆ　　　　　,Fashion advisor,レディスアパレル・アクセサリー・ファッション雑貨の接客販売を中心に、商品整理やディスプレイの変更補助など、店舗業務全般に携わっていただきます。, parttime_work,時給９００円～,高卒以上、年齢不問、経験不問、長期勤務できる方歓迎、学生・フリーター歓迎、扶養内勤務OK,応相談、シフト自己申告制（1カ月単位）、週３日～勤務OK、平日のみ勤務OK、土日祝のみ勤務OK,8:30~21:00、１５時まで勤務OK、夕方～閉店まで勤務OK、実働５時間～勤務歓迎,"スタッフ割引あり、昇給あり、報奨金制度あり、社員登用制度あり、交通費支給（1,000円／日）、
※車通勤の可否は店舗により異なりますので詳しくはお問い合わせください。
ノルマなし、服装・髪型・ネイル自由（ショップの雰囲気に合っていれば着用ブランドは問いません）",応募フォームまたは希望店舗へお電話にてご応募ください。,"希望店舗または下記までお電話ください。
052-531-9143（本社採用課）",part_time,recruit_detail,publish
イオンモール盛岡南　「LASUD」,tohoku ,iwate,岩手県盛岡市本宮７－１－１　イオンモール盛岡南１Ｆ,Fashion advisor,レディスアパレル・アクセサリー・ファッション雑貨の接客販売を中心に、商品整理やディスプレイの変更補助など、店舗業務全般に携わっていただきます。, parttime_work,時給９００円～,高卒以上、年齢不問、経験不問、長期勤務できる方歓迎、学生・フリーター歓迎、扶養内勤務OK,応相談、シフト自己申告制（1カ月単位）、週３日～勤務OK、平日のみ勤務OK、土日祝のみ勤務OK,8:30~21:00、１５時まで勤務OK、夕方～閉店まで勤務OK、実働５時間～勤務歓迎,"スタッフ割引あり、昇給あり、報奨金制度あり、社員登用制度あり、交通費支給（1,000円／日）、
※車通勤の可否は店舗により異なりますので詳しくはお問い合わせください。
ノルマなし、服装・髪型・ネイル自由（ショップの雰囲気に合っていれば着用ブランドは問いません）",応募フォームまたは希望店舗へお電話にてご応募ください。,"希望店舗または下記までお電話ください。
052-531-9143（本社採用課）",part_time,recruit_detail,publish
エスパル　「Radiate」,tohoku ,miyagi,宮城県仙台市青葉区中央１－１－１　エスパル仙台本館１Ｆ,Fashion advisor,レディスアパレル・アクセサリー・ファッション雑貨の接客販売を中心に、商品整理やディスプレイの変更補助など、店舗業務全般に携わっていただきます。, parttime_work,時給９００円～,高卒以上、年齢不問、経験不問、長期勤務できる方歓迎、学生・フリーター歓迎、扶養内勤務OK,応相談、シフト自己申告制（1カ月単位）、週３日～勤務OK、平日のみ勤務OK、土日祝のみ勤務OK,9:30~21:00、１５時まで勤務OK、夕方～閉店まで勤務OK、実働５時間～勤務歓迎,"スタッフ割引あり、昇給あり、報奨金制度あり、社員登用制度あり、交通費支給（1,000円／日）、
※車通勤の可否は店舗により異なりますので詳しくはお問い合わせください。
ノルマなし、服装・髪型・ネイル自由（ショップの雰囲気に合っていれば着用ブランドは問いません）",応募フォームまたは希望店舗へお電話にてご応募ください。,"希望店舗または下記までお電話ください。
052-531-9143（本社採用課）",part_time,recruit_detail,publish
イオンモール名取　「LASUD」「Vin」,tohoku ,miyagi,宮城県名取市杜せきのした５－３－１　イオンモール名取１Ｆ　　　　　,Fashion advisor,レディスアパレル・アクセサリー・ファッション雑貨の接客販売を中心に、商品整理やディスプレイの変更補助など、店舗業務全般に携わっていただきます。, parttime_work,時給９００円～,高卒以上、年齢不問、経験不問、長期勤務できる方歓迎、学生・フリーター歓迎、扶養内勤務OK,応相談、シフト自己申告制（1カ月単位）、週３日～勤務OK、平日のみ勤務OK、土日祝のみ勤務OK,8:30~21:00、１５時まで勤務OK、夕方～閉店まで勤務OK、実働５時間～勤務歓迎,"スタッフ割引あり、昇給あり、報奨金制度あり、社員登用制度あり、交通費支給（1,000円／日）、
※車通勤の可否は店舗により異なりますので詳しくはお問い合わせください。
ノルマなし、服装・髪型・ネイル自由（ショップの雰囲気に合っていれば着用ブランドは問いません）",応募フォームまたは希望店舗へお電話にてご応募ください。,"希望店舗または下記までお電話ください。
052-531-9143（本社採用課）",part_time,recruit_detail,publish
イオンモール山形南　「LASUD・Petit Maison」,tohoku ,yamagata,山形県山形市若宮３－７－８　イオンモール山形南１Ｆ,Fashion advisor,レディスアパレル・アクセサリー・ファッション雑貨の接客販売を中心に、商品整理やディスプレイの変更補助など、店舗業務全般に携わっていただきます。, parttime_work,時給９００円～,高卒以上、年齢不問、経験不問、長期勤務できる方歓迎、学生・フリーター歓迎、扶養内勤務OK,応相談、シフト自己申告制（1カ月単位）、週３日～勤務OK、平日のみ勤務OK、土日祝のみ勤務OK,8:30~21:00、１５時まで勤務OK、夕方～閉店まで勤務OK、実働５時間～勤務歓迎,"スタッフ割引あり、昇給あり、報奨金制度あり、社員登用制度あり、交通費支給（1,000円／日）、
※車通勤の可否は店舗により異なりますので詳しくはお問い合わせください。
ノルマなし、服装・髪型・ネイル自由（ショップの雰囲気に合っていれば着用ブランドは問いません）",応募フォームまたは希望店舗へお電話にてご応募ください。,"希望店舗または下記までお電話ください。
052-531-9143（本社採用課）",part_time,recruit_detail,publish
イオンモール天童　「LASUD」,tohoku ,yamagata,山形県天童市芳賀タウン北４－１－１　イオンモール天童1F　　　　　,Fashion advisor,レディスアパレル・アクセサリー・ファッション雑貨の接客販売を中心に、商品整理やディスプレイの変更補助など、店舗業務全般に携わっていただきます。, parttime_work,時給９００円～,高卒以上、年齢不問、経験不問、長期勤務できる方歓迎、学生・フリーター歓迎、扶養内勤務OK,応相談、シフト自己申告制（1カ月単位）、週３日～勤務OK、平日のみ勤務OK、土日祝のみ勤務OK,8:30~21:00、１５時まで勤務OK、夕方～閉店まで勤務OK、実働５時間～勤務歓迎,"スタッフ割引あり、昇給あり、報奨金制度あり、社員登用制度あり、交通費支給（1,000円／日）、
※車通勤の可否は店舗により異なりますので詳しくはお問い合わせください。
ノルマなし、服装・髪型・ネイル自由（ショップの雰囲気に合っていれば着用ブランドは問いません）",応募フォームまたは希望店舗へお電話にてご応募ください。,"希望店舗または下記までお電話ください。
052-531-9143（本社採用課）",part_time,recruit_detail,publish
イオン福島　「CAREN・Poudre」,tohoku ,fukushima,福島県福島市南矢野目字西荒田５０－１７　イオン福島２Ｆ　　　　　,Fashion advisor,レディスアパレル・アクセサリー・ファッション雑貨の接客販売を中心に、商品整理やディスプレイの変更補助など、店舗業務全般に携わっていただきます。, parttime_work,時給９００円～,高卒以上、年齢不問、経験不問、長期勤務できる方歓迎、学生・フリーター歓迎、扶養内勤務OK,応相談、シフト自己申告制（1カ月単位）、週３日～勤務OK、平日のみ勤務OK、土日祝のみ勤務OK,8:30~21:00、１５時まで勤務OK、夕方～閉店まで勤務OK、実働５時間～勤務歓迎,"スタッフ割引あり、昇給あり、報奨金制度あり、社員登用制度あり、交通費支給（1,000円／日）、
※車通勤の可否は店舗により異なりますので詳しくはお問い合わせください。
ノルマなし、服装・髪型・ネイル自由（ショップの雰囲気に合っていれば着用ブランドは問いません）",応募フォームまたは希望店舗へお電話にてご応募ください。,"希望店舗または下記までお電話ください。
052-531-9143（本社採用課）",part_time,recruit_detail,publish
ザ・モール郡山　「SCOTCLUB」,tohoku ,fukushima,福島県郡山市長者１－１－５６　ザ・モール郡山１Ｆ　　　　　　,Fashion advisor,レディスアパレル・アクセサリー・ファッション雑貨の接客販売を中心に、商品整理やディスプレイの変更補助など、店舗業務全般に携わっていただきます。, parttime_work,時給９００円～,高卒以上、年齢不問、経験不問、長期勤務できる方歓迎、学生・フリーター歓迎、扶養内勤務OK,応相談、シフト自己申告制（1カ月単位）、週３日～勤務OK、平日のみ勤務OK、土日祝のみ勤務OK,9:30~21:00、１５時まで勤務OK、夕方～閉店まで勤務OK、実働５時間～勤務歓迎,"スタッフ割引あり、昇給あり、報奨金制度あり、社員登用制度あり、交通費支給（1,000円／日）、
※車通勤の可否は店舗により異なりますので詳しくはお問い合わせください。
ノルマなし、服装・髪型・ネイル自由（ショップの雰囲気に合っていれば着用ブランドは問いません）",応募フォームまたは希望店舗へお電話にてご応募ください。,"希望店舗または下記までお電話ください。
052-531-9143（本社採用課）",part_time,recruit_detail,publish
CoCoLo長岡　「MAITRESSE」,koshinetsu,niigata,新潟県長岡市城内町１－６１１－１　長岡駅ビルCoCoLo２Ｆ　　　　　,Fashion advisor,レディスアパレル・アクセサリー・ファッション雑貨の接客販売を中心に、商品整理やディスプレイの変更補助など、店舗業務全般に携わっていただきます。, parttime_work,時給９００円～,高卒以上、年齢不問、経験不問、長期勤務できる方歓迎、学生・フリーター歓迎、扶養内勤務OK,応相談、シフト自己申告制（1カ月単位）、週３日～勤務OK、平日のみ勤務OK、土日祝のみ勤務OK,9:30~20:00、１５時まで勤務OK、夕方～閉店まで勤務OK、実働５時間～勤務歓迎,"スタッフ割引あり、昇給あり、報奨金制度あり、社員登用制度あり、交通費支給（1,000円／日）、
※車通勤の可否は店舗により異なりますので詳しくはお問い合わせください。
ノルマなし、服装・髪型・ネイル自由（ショップの雰囲気に合っていれば着用ブランドは問いません）",応募フォームまたは希望店舗へお電話にてご応募ください。,"希望店舗または下記までお電話ください。
052-531-9143（本社採用課）",part_time,recruit_detail,publish
リバーサイド千秋　「LASUD・Vin・SCOTCLUB」「CLOVE」,koshinetsu,niigata,新潟県長岡市千秋２－２７８　リバーサイド千秋１Ｆ　　　　　,Fashion advisor,レディスアパレル・アクセサリー・ファッション雑貨の接客販売を中心に、商品整理やディスプレイの変更補助など、店舗業務全般に携わっていただきます。, parttime_work,時給９００円～,高卒以上、年齢不問、経験不問、長期勤務できる方歓迎、学生・フリーター歓迎、扶養内勤務OK,応相談、シフト自己申告制（1カ月単位）、週３日～勤務OK、平日のみ勤務OK、土日祝のみ勤務OK,9:30~21:00、１５時まで勤務OK、夕方～閉店まで勤務OK、実働５時間～勤務歓迎,"スタッフ割引あり、昇給あり、報奨金制度あり、社員登用制度あり、交通費支給（1,000円／日）、
※車通勤の可否は店舗により異なりますので詳しくはお問い合わせください。
ノルマなし、服装・髪型・ネイル自由（ショップの雰囲気に合っていれば着用ブランドは問いません）",応募フォームまたは希望店舗へお電話にてご応募ください。,"希望店舗または下記までお電話ください。
052-531-9143（本社採用課）",part_time,recruit_detail,publish
イオンモール新潟南　「LASUD」「MEDOC」,koshinetsu,niigata,新潟県新潟市江南区下早通柳田１－１－１　イオンモール新潟南１Ｆ　　　　,Fashion advisor,レディスアパレル・アクセサリー・ファッション雑貨の接客販売を中心に、商品整理やディスプレイの変更補助など、店舗業務全般に携わっていただきます。, parttime_work,時給９００円～,高卒以上、年齢不問、経験不問、長期勤務できる方歓迎、学生・フリーター歓迎、扶養内勤務OK,応相談、シフト自己申告制（1カ月単位）、週３日～勤務OK、平日のみ勤務OK、土日祝のみ勤務OK,8:30~21:00、１５時まで勤務OK、夕方～閉店まで勤務OK、実働５時間～勤務歓迎,"スタッフ割引あり、昇給あり、報奨金制度あり、社員登用制度あり、交通費支給（1,000円／日）、
※車通勤の可否は店舗により異なりますので詳しくはお問い合わせください。
ノルマなし、服装・髪型・ネイル自由（ショップの雰囲気に合っていれば着用ブランドは問いません）",応募フォームまたは希望店舗へお電話にてご応募ください。,"希望店舗または下記までお電話ください。
052-531-9143（本社採用課）",part_time,recruit_detail,publish
イオンモール甲府昭和　「MEDOC」,koshinetsu,yamanashi,山梨県中巨摩郡昭和町飯喰１５０５－１　イオンモール甲府昭和１Ｆ　　　,Fashion advisor,レディスアパレル・アクセサリー・ファッション雑貨の接客販売を中心に、商品整理やディスプレイの変更補助など、店舗業務全般に携わっていただきます。, parttime_work,時給９００円～,高卒以上、年齢不問、経験不問、長期勤務できる方歓迎、学生・フリーター歓迎、扶養内勤務OK,応相談、シフト自己申告制（1カ月単位）、週３日～勤務OK、平日のみ勤務OK、土日祝のみ勤務OK,9:30~21:00、１５時まで勤務OK、夕方～閉店まで勤務OK、実働５時間～勤務歓迎,"スタッフ割引あり、昇給あり、報奨金制度あり、社員登用制度あり、交通費支給（1,000円／日）、
※車通勤の可否は店舗により異なりますので詳しくはお問い合わせください。
ノルマなし、服装・髪型・ネイル自由（ショップの雰囲気に合っていれば着用ブランドは問いません）",応募フォームまたは希望店舗へお電話にてご応募ください。,"希望店舗または下記までお電話ください。
052-531-9143（本社採用課）",part_time,recruit_detail,publish
イオンモール太田　「LASUD」「Vin」,kitakantou,gunma,群馬県太田市石原町８１　イオンモール太田１Ｆ　　　　　,Fashion advisor,レディスアパレル・アクセサリー・ファッション雑貨の接客販売を中心に、商品整理やディスプレイの変更補助など、店舗業務全般に携わっていただきます。, parttime_work,時給９５０円～,高卒以上、年齢不問、経験不問、長期勤務できる方歓迎、学生・フリーター歓迎、扶養内勤務OK,応相談、シフト自己申告制（1カ月単位）、週３日～勤務OK、平日のみ勤務OK、土日祝のみ勤務OK,9:30~22:00、１５時まで勤務OK、夕方～閉店まで勤務OK、実働５時間～勤務歓迎,"スタッフ割引あり、昇給あり、報奨金制度あり、社員登用制度あり、交通費支給（1,000円／日）、
※車通勤の可否は店舗により異なりますので詳しくはお問い合わせください。
ノルマなし、服装・髪型・ネイル自由（ショップの雰囲気に合っていれば着用ブランドは問いません）",応募フォームまたは希望店舗へお電話にてご応募ください。,"希望店舗または下記までお電話ください。
052-531-9143（本社採用課）",part_time,recruit_detail,publish
イオンモール高崎　「LASUD」「Vin」,kitakantou,gunma,群馬県高崎市棟高町１４００　イオンモール高崎１Ｆ　　　　　,Fashion advisor,レディスアパレル・アクセサリー・ファッション雑貨の接客販売を中心に、商品整理やディスプレイの変更補助など、店舗業務全般に携わっていただきます。, parttime_work,時給９５０円～,高卒以上、年齢不問、経験不問、長期勤務できる方歓迎、学生・フリーター歓迎、扶養内勤務OK,応相談、シフト自己申告制（1カ月単位）、週３日～勤務OK、平日のみ勤務OK、土日祝のみ勤務OK,9:30~22:00、１５時まで勤務OK、夕方～閉店まで勤務OK、実働５時間～勤務歓迎,"スタッフ割引あり、昇給あり、報奨金制度あり、社員登用制度あり、交通費支給（1,000円／日）、
※車通勤の可否は店舗により異なりますので詳しくはお問い合わせください。
ノルマなし、服装・髪型・ネイル自由（ショップの雰囲気に合っていれば着用ブランドは問いません）",応募フォームまたは希望店舗へお電話にてご応募ください。,"希望店舗または下記までお電話ください。
052-531-9143（本社採用課）",part_time,recruit_detail,publish
けやきウォーク前橋　「MEDOC」,kitakantou,gunma,群馬県前橋市文京町２－１－１　けやきウォーク前橋１Ｆ　　　　,Fashion advisor,レディスアパレル・アクセサリー・ファッション雑貨の接客販売を中心に、商品整理やディスプレイの変更補助など、店舗業務全般に携わっていただきます。, parttime_work,時給９５０円～,高卒以上、年齢不問、経験不問、長期勤務できる方歓迎、学生・フリーター歓迎、扶養内勤務OK,応相談、シフト自己申告制（1カ月単位）、週３日～勤務OK、平日のみ勤務OK、土日祝のみ勤務OK,9:30~22:00、１５時まで勤務OK、夕方～閉店まで勤務OK、実働５時間～勤務歓迎,"スタッフ割引あり、昇給あり、報奨金制度あり、社員登用制度あり、交通費支給（1,000円／日）、
※車通勤の可否は店舗により異なりますので詳しくはお問い合わせください。
ノルマなし、服装・髪型・ネイル自由（ショップの雰囲気に合っていれば着用ブランドは問いません）",応募フォームまたは希望店舗へお電話にてご応募ください。,"希望店舗または下記までお電話ください。
052-531-9143（本社採用課）",part_time,recruit_detail,publish
スマーク伊勢崎　「SCOTCLUB」,kitakantou,gunma,群馬県伊勢崎市西小保方町３６８　スマーク伊勢崎１Ｆ　　　,Fashion advisor,レディスアパレル・アクセサリー・ファッション雑貨の接客販売を中心に、商品整理やディスプレイの変更補助など、店舗業務全般に携わっていただきます。, parttime_work,時給９５０円～,高卒以上、年齢不問、経験不問、長期勤務できる方歓迎、学生・フリーター歓迎、扶養内勤務OK,応相談、シフト自己申告制（1カ月単位）、週３日～勤務OK、平日のみ勤務OK、土日祝のみ勤務OK,9:30~21:00、１５時まで勤務OK、夕方～閉店まで勤務OK、実働５時間～勤務歓迎,"スタッフ割引あり、昇給あり、報奨金制度あり、社員登用制度あり、交通費支給（1,000円／日）、
※車通勤の可否は店舗により異なりますので詳しくはお問い合わせください。
ノルマなし、服装・髪型・ネイル自由（ショップの雰囲気に合っていれば着用ブランドは問いません）",応募フォームまたは希望店舗へお電話にてご応募ください。,"希望店舗または下記までお電話ください。
052-531-9143（本社採用課）",part_time,recruit_detail,publish
FKDインターパーク　「LASUD」,kitakantou,tochigi,栃木県宇都宮市インターパーク６－１－１　FKDインターパーク１F,Fashion advisor,レディスアパレル・アクセサリー・ファッション雑貨の接客販売を中心に、商品整理やディスプレイの変更補助など、店舗業務全般に携わっていただきます。, parttime_work,時給９５０円～,高卒以上、年齢不問、経験不問、長期勤務できる方歓迎、学生・フリーター歓迎、扶養内勤務OK,応相談、シフト自己申告制（1カ月単位）、週３日～勤務OK、平日のみ勤務OK、土日祝のみ勤務OK,9:30~21:00、１５時まで勤務OK、夕方～閉店まで勤務OK、実働５時間～勤務歓迎,"スタッフ割引あり、昇給あり、報奨金制度あり、社員登用制度あり、交通費支給（1,000円／日）、
※車通勤の可否は店舗により異なりますので詳しくはお問い合わせください。
ノルマなし、服装・髪型・ネイル自由（ショップの雰囲気に合っていれば着用ブランドは問いません）",応募フォームまたは希望店舗へお電話にてご応募ください。,"希望店舗または下記までお電話ください。
052-531-9143（本社採用課）",part_time,recruit_detail,publish
イオンモール水戸内原　「LASUD・Petit Maison」,kitakantou,ibaraki,茨城県水戸市内原２－１　イオンモール水戸内原1F　　　　　,Fashion advisor,レディスアパレル・アクセサリー・ファッション雑貨の接客販売を中心に、商品整理やディスプレイの変更補助など、店舗業務全般に携わっていただきます。, parttime_work,時給９５０円～,高卒以上、年齢不問、経験不問、長期勤務できる方歓迎、学生・フリーター歓迎、扶養内勤務OK,応相談、シフト自己申告制（1カ月単位）、週３日～勤務OK、平日のみ勤務OK、土日祝のみ勤務OK,9:30~22:00、１５時まで勤務OK、夕方～閉店まで勤務OK、実働５時間～勤務歓迎,"スタッフ割引あり、昇給あり、報奨金制度あり、社員登用制度あり、交通費支給（1,000円／日）、
※車通勤の可否は店舗により異なりますので詳しくはお問い合わせください。
ノルマなし、服装・髪型・ネイル自由（ショップの雰囲気に合っていれば着用ブランドは問いません）",応募フォームまたは希望店舗へお電話にてご応募ください。,"希望店舗または下記までお電話ください。
052-531-9143（本社採用課）",part_time,recruit_detail,publish
イーアスつくば　「LASUD」,kitakantou,ibaraki,茨城県つくば市研究学園５－１９　イーアスつくば１Ｆ　　　,Fashion advisor,レディスアパレル・アクセサリー・ファッション雑貨の接客販売を中心に、商品整理やディスプレイの変更補助など、店舗業務全般に携わっていただきます。, parttime_work,時給９５０円～,高卒以上、年齢不問、経験不問、長期勤務できる方歓迎、学生・フリーター歓迎、扶養内勤務OK,応相談、シフト自己申告制（1カ月単位）、週３日～勤務OK、平日のみ勤務OK、土日祝のみ勤務OK,9:30~21:00、１５時まで勤務OK、夕方～閉店まで勤務OK、実働５時間～勤務歓迎,"スタッフ割引あり、昇給あり、報奨金制度あり、社員登用制度あり、交通費支給（1,000円／日）、
※車通勤の可否は店舗により異なりますので詳しくはお問い合わせください。
ノルマなし、服装・髪型・ネイル自由（ショップの雰囲気に合っていれば着用ブランドは問いません）",応募フォームまたは希望店舗へお電話にてご応募ください。,"希望店舗または下記までお電話ください。
052-531-9143（本社採用課）",part_time,recruit_detail,publish
イオンモールつくば　「Vin」,kitakantou,ibaraki,茨城県つくば市稲岡６６－１　イオンモールつくば１F　　　　,Fashion advisor,レディスアパレル・アクセサリー・ファッション雑貨の接客販売を中心に、商品整理やディスプレイの変更補助など、店舗業務全般に携わっていただきます。, parttime_work,時給９５０円～,高卒以上、年齢不問、経験不問、長期勤務できる方歓迎、学生・フリーター歓迎、扶養内勤務OK,応相談、シフト自己申告制（1カ月単位）、週３日～勤務OK、平日のみ勤務OK、土日祝のみ勤務OK,9:30~21:00、１５時まで勤務OK、夕方～閉店まで勤務OK、実働５時間～勤務歓迎,"スタッフ割引あり、昇給あり、報奨金制度あり、社員登用制度あり、交通費支給（1,000円／日）、
※車通勤の可否は店舗により異なりますので詳しくはお問い合わせください。
ノルマなし、服装・髪型・ネイル自由（ショップの雰囲気に合っていれば着用ブランドは問いません）",応募フォームまたは希望店舗へお電話にてご応募ください。,"希望店舗または下記までお電話ください。
052-531-9143（本社採用課）",part_time,recruit_detail,publish
アトレ大森　「SCOTCLUB」,minamikantou,tokyo,東京都大田区大森北１－６－１６　アトレ３Ｆ　　　　　　　　　　,Fashion advisor,レディスアパレル・アクセサリー・ファッション雑貨の接客販売を中心に、商品整理やディスプレイの変更補助など、店舗業務全般に携わっていただきます。, parttime_work,"時給1,020円～",高卒以上、年齢不問、経験不問、長期勤務できる方歓迎、学生・フリーター歓迎、扶養内勤務OK,応相談、シフト自己申告制（1カ月単位）、週３日～勤務OK、平日のみ勤務OK、土日祝のみ勤務OK,9:30～21:00、１５時まで勤務OK、夕方～閉店まで勤務OK、実働５時間～勤務歓迎,"スタッフ割引あり、昇給あり、報奨金制度あり、社員登用制度あり、交通費支給（1,000円／日）、
※車通勤の可否は店舗により異なりますので詳しくはお問い合わせください。
ノルマなし、服装・髪型・ネイル自由（ショップの雰囲気に合っていれば着用ブランドは問いません）",応募フォームまたは希望店舗へお電話にてご応募ください。,"希望店舗または下記までお電話ください。
052-531-9143（本社採用課）",part_time,recruit_detail,publish
ららぽーと豊洲　「FENNEL」,minamikantou,tokyo,東京都江東区豊洲２ー４ー９　ららぽーと豊洲２Ｆ　　　　　　　　　　　　　　　　　　　　　,Fashion advisor,レディスアパレル・アクセサリー・ファッション雑貨の接客販売を中心に、商品整理やディスプレイの変更補助など、店舗業務全般に携わっていただきます。, parttime_work,"時給1,020円～",高卒以上、年齢不問、経験不問、長期勤務できる方歓迎、学生・フリーター歓迎、扶養内勤務OK,応相談、シフト自己申告制（1カ月単位）、週３日～勤務OK、平日のみ勤務OK、土日祝のみ勤務OK,9:30~21:00、１５時まで勤務OK、夕方～閉店まで勤務OK、実働５時間～勤務歓迎,"スタッフ割引あり、昇給あり、報奨金制度あり、社員登用制度あり、交通費支給（1,000円／日）、
※車通勤の可否は店舗により異なりますので詳しくはお問い合わせください。
ノルマなし、服装・髪型・ネイル自由（ショップの雰囲気に合っていれば着用ブランドは問いません）",応募フォームまたは希望店舗へお電話にてご応募ください。,"希望店舗または下記までお電話ください。
052-531-9143（本社採用課）",part_time,recruit_detail,publish
イオンモールむさし村山　「MEDOC」,minamikantou,tokyo,東京都武蔵村山市榎１－１－３　イオンモールむさし村山１Ｆ　　,Fashion advisor,レディスアパレル・アクセサリー・ファッション雑貨の接客販売を中心に、商品整理やディスプレイの変更補助など、店舗業務全般に携わっていただきます。, parttime_work,"時給1,020円～",高卒以上、年齢不問、経験不問、長期勤務できる方歓迎、学生・フリーター歓迎、扶養内勤務OK,応相談、シフト自己申告制（1カ月単位）、週３日～勤務OK、平日のみ勤務OK、土日祝のみ勤務OK,9:30~22:00、１５時まで勤務OK、夕方～閉店まで勤務OK、実働５時間～勤務歓迎,"スタッフ割引あり、昇給あり、報奨金制度あり、社員登用制度あり、交通費支給（1,000円／日）、
※車通勤の可否は店舗により異なりますので詳しくはお問い合わせください。
ノルマなし、服装・髪型・ネイル自由（ショップの雰囲気に合っていれば着用ブランドは問いません）",応募フォームまたは希望店舗へお電話にてご応募ください。,"希望店舗または下記までお電話ください。
052-531-9143（本社採用課）",part_time,recruit_detail,publish
ラゾーナ川崎プラザ　「Radiate」,minamikantou,kanagawa,神奈川県川崎市幸区堀川町７２－１　ラゾーナ川崎プラザEast２Ｆ　　　　　　　　,Fashion advisor,レディスアパレル・アクセサリー・ファッション雑貨の接客販売を中心に、商品整理やディスプレイの変更補助など、店舗業務全般に携わっていただきます。, parttime_work,"時給1,020円～",高卒以上、年齢不問、経験不問、長期勤務できる方歓迎、学生・フリーター歓迎、扶養内勤務OK,応相談、シフト自己申告制（1カ月単位）、週３日～勤務OK、平日のみ勤務OK、土日祝のみ勤務OK,9:30~21:00、１５時まで勤務OK、夕方～閉店まで勤務OK、実働５時間～勤務歓迎,"スタッフ割引あり、昇給あり、報奨金制度あり、社員登用制度あり、交通費支給（1,000円／日）、
※車通勤の可否は店舗により異なりますので詳しくはお問い合わせください。
ノルマなし、服装・髪型・ネイル自由（ショップの雰囲気に合っていれば着用ブランドは問いません）",応募フォームまたは希望店舗へお電話にてご応募ください。,"希望店舗または下記までお電話ください。
052-531-9143（本社採用課）",part_time,recruit_detail,publish
アゼリア　「FENNEL」　,minamikantou,kanagawa,神奈川県川崎市川崎区駅前本町２６ー２　川崎アゼリア３１２　　　　　　,Fashion advisor,レディスアパレル・アクセサリー・ファッション雑貨の接客販売を中心に、商品整理やディスプレイの変更補助など、店舗業務全般に携わっていただきます。, parttime_work,"時給1,020円～",高卒以上、年齢不問、経験不問、長期勤務できる方歓迎、学生・フリーター歓迎、扶養内勤務OK,応相談、シフト自己申告制（1カ月単位）、週３日～勤務OK、平日のみ勤務OK、土日祝のみ勤務OK,9:30~21:00、１５時まで勤務OK、夕方～閉店まで勤務OK、実働５時間～勤務歓迎,"スタッフ割引あり、昇給あり、報奨金制度あり、社員登用制度あり、交通費支給（1,000円／日）、
※車通勤の可否は店舗により異なりますので詳しくはお問い合わせください。
ノルマなし、服装・髪型・ネイル自由（ショップの雰囲気に合っていれば着用ブランドは問いません）",応募フォームまたは希望店舗へお電話にてご応募ください。,"希望店舗または下記までお電話ください。
052-531-9143（本社採用課）",part_time,recruit_detail,publish
ららぽーと横浜　「Aga」,minamikantou,kanagawa,神奈川県横浜市都筑区池辺町４０３５－１　ららぽーと横浜１Ｆ　　　　　　,Fashion advisor,レディスアパレル・アクセサリー・ファッション雑貨の接客販売を中心に、商品整理やディスプレイの変更補助など、店舗業務全般に携わっていただきます。, parttime_work,"時給1,020円～",高卒以上、年齢不問、経験不問、長期勤務できる方歓迎、学生・フリーター歓迎、扶養内勤務OK,応相談、シフト自己申告制（1カ月単位）、週３日～勤務OK、平日のみ勤務OK、土日祝のみ勤務OK,9:30~21:00、１５時まで勤務OK、夕方～閉店まで勤務OK、実働５時間～勤務歓迎,"スタッフ割引あり、昇給あり、報奨金制度あり、社員登用制度あり、交通費支給（1,000円／日）、
※車通勤の可否は店舗により異なりますので詳しくはお問い合わせください。
ノルマなし、服装・髪型・ネイル自由（ショップの雰囲気に合っていれば着用ブランドは問いません）",応募フォームまたは希望店舗へお電話にてご応募ください。,"希望店舗または下記までお電話ください。
052-531-9143（本社採用課）",part_time,recruit_detail,publish
ジョイナス　「RADIATE」,minamikantou,kanagawa,神奈川県横浜市西区南幸１－５－１　相鉄ジョイナス地下1階　　　　,Fashion advisor,レディスアパレル・アクセサリー・ファッション雑貨の接客販売を中心に、商品整理やディスプレイの変更補助など、店舗業務全般に携わっていただきます。, parttime_work,"時給1,020円～",高卒以上、年齢不問、経験不問、長期勤務できる方歓迎、学生・フリーター歓迎、扶養内勤務OK,応相談、シフト自己申告制（1カ月単位）、週３日～勤務OK、平日のみ勤務OK、土日祝のみ勤務OK,9:30~21:00、１５時まで勤務OK、夕方～閉店まで勤務OK、実働５時間～勤務歓迎,"スタッフ割引あり、昇給あり、報奨金制度あり、社員登用制度あり、交通費支給（1,000円／日）、
※車通勤の可否は店舗により異なりますので詳しくはお問い合わせください。
ノルマなし、服装・髪型・ネイル自由（ショップの雰囲気に合っていれば着用ブランドは問いません）",応募フォームまたは希望店舗へお電話にてご応募ください。,"希望店舗または下記までお電話ください。
052-531-9143（本社採用課）",part_time,recruit_detail,publish
イオンモール大和　「SCOTCLUB」,minamikantou,kanagawa,神奈川県大和市下鶴間１－２－１　イオンモール大和２Ｆ　　　　　,Fashion advisor,レディスアパレル・アクセサリー・ファッション雑貨の接客販売を中心に、商品整理やディスプレイの変更補助など、店舗業務全般に携わっていただきます。, parttime_work,"時給1,020円～",高卒以上、年齢不問、経験不問、長期勤務できる方歓迎、学生・フリーター歓迎、扶養内勤務OK,応相談、シフト自己申告制（1カ月単位）、週３日～勤務OK、平日のみ勤務OK、土日祝のみ勤務OK,9:30~22:00、１５時まで勤務OK、夕方～閉店まで勤務OK、実働５時間～勤務歓迎,"スタッフ割引あり、昇給あり、報奨金制度あり、社員登用制度あり、交通費支給（1,000円／日）、
※車通勤の可否は店舗により異なりますので詳しくはお問い合わせください。
ノルマなし、服装・髪型・ネイル自由（ショップの雰囲気に合っていれば着用ブランドは問いません）",応募フォームまたは希望店舗へお電話にてご応募ください。,"希望店舗または下記までお電話ください。
052-531-9143（本社採用課）",part_time,recruit_detail,publish
テラスモール湘南　「LASUD」,minamikantou,kanagawa,神奈川県藤沢市辻堂神台１－３－１　テラスモール湘南１Ｆ　　,Fashion advisor,レディスアパレル・アクセサリー・ファッション雑貨の接客販売を中心に、商品整理やディスプレイの変更補助など、店舗業務全般に携わっていただきます。, parttime_work,"時給1,020円～",高卒以上、年齢不問、経験不問、長期勤務できる方歓迎、学生・フリーター歓迎、扶養内勤務OK,応相談、シフト自己申告制（1カ月単位）、週３日～勤務OK、平日のみ勤務OK、土日祝のみ勤務OK,9:30~21:00、１５時まで勤務OK、夕方～閉店まで勤務OK、実働５時間～勤務歓迎,"スタッフ割引あり、昇給あり、報奨金制度あり、社員登用制度あり、交通費支給（1,000円／日）、
※車通勤の可否は店舗により異なりますので詳しくはお問い合わせください。
ノルマなし、服装・髪型・ネイル自由（ショップの雰囲気に合っていれば着用ブランドは問いません）",応募フォームまたは希望店舗へお電話にてご応募ください。,"希望店舗または下記までお電話ください。
052-531-9143（本社採用課）",part_time,recruit_detail,publish
イオンモール幕張新都心　「Sud et Nord」,minamikantou,chiba,千葉県千葉市美浜区豊砂１－１他　イオンモール幕張新都心1F　　　,Fashion advisor,レディスアパレル・アクセサリー・ファッション雑貨の接客販売を中心に、商品整理やディスプレイの変更補助など、店舗業務全般に携わっていただきます。, parttime_work,時給９５０円～,高卒以上、年齢不問、経験不問、長期勤務できる方歓迎、学生・フリーター歓迎、扶養内勤務OK,応相談、シフト自己申告制（1カ月単位）、週３日～勤務OK、平日のみ勤務OK、土日祝のみ勤務OK,9:30~21:00、１５時まで勤務OK、夕方～閉店まで勤務OK、実働５時間～勤務歓迎,"スタッフ割引あり、昇給あり、報奨金制度あり、社員登用制度あり、交通費支給（1,000円／日）、
※車通勤の可否は店舗により異なりますので詳しくはお問い合わせください。
ノルマなし、服装・髪型・ネイル自由（ショップの雰囲気に合っていれば着用ブランドは問いません）",応募フォームまたは希望店舗へお電話にてご応募ください。,"希望店舗または下記までお電話ください。
052-531-9143（本社採用課）",part_time,recruit_detail,publish
テラスモール松戸　「MEDOC」,minamikantou,chiba,千葉県松戸市八ヶ崎２－８－１　テラスモール松戸２Ｆ　　　　　,Fashion advisor,レディスアパレル・アクセサリー・ファッション雑貨の接客販売を中心に、商品整理やディスプレイの変更補助など、店舗業務全般に携わっていただきます。, parttime_work,時給９５０円～,高卒以上、年齢不問、経験不問、長期勤務できる方歓迎、学生・フリーター歓迎、扶養内勤務OK,応相談、シフト自己申告制（1カ月単位）、週３日～勤務OK、平日のみ勤務OK、土日祝のみ勤務OK,9:30~21:00、１５時まで勤務OK、夕方～閉店まで勤務OK、実働５時間～勤務歓迎,"スタッフ割引あり、昇給あり、報奨金制度あり、社員登用制度あり、交通費支給（1,000円／日）、
※車通勤の可否は店舗により異なりますので詳しくはお問い合わせください。
ノルマなし、服装・髪型・ネイル自由（ショップの雰囲気に合っていれば着用ブランドは問いません）",応募フォームまたは希望店舗へお電話にてご応募ください。,"希望店舗または下記までお電話ください。
052-531-9143（本社採用課）",part_time,recruit_detail,publish
イオンモール成田　１F　「MEDOC」,minamikantou,chiba,千葉県成田市ウイング土屋２４　イオンモール成田１Ｆ　　　　　,Fashion advisor,レディスアパレル・アクセサリー・ファッション雑貨の接客販売を中心に、商品整理やディスプレイの変更補助など、店舗業務全般に携わっていただきます。, parttime_work,時給９５０円～,高卒以上、年齢不問、経験不問、長期勤務できる方歓迎、学生・フリーター歓迎、扶養内勤務OK,応相談、シフト自己申告制（1カ月単位）、週３日～勤務OK、平日のみ勤務OK、土日祝のみ勤務OK,9:30~22:00、１５時まで勤務OK、夕方～閉店まで勤務OK、実働５時間～勤務歓迎,"スタッフ割引あり、昇給あり、報奨金制度あり、社員登用制度あり、交通費支給（1,000円／日）、
※車通勤の可否は店舗により異なりますので詳しくはお問い合わせください。
ノルマなし、服装・髪型・ネイル自由（ショップの雰囲気に合っていれば着用ブランドは問いません）",応募フォームまたは希望店舗へお電話にてご応募ください。,"希望店舗または下記までお電話ください。
052-531-9143（本社採用課）",part_time,recruit_detail,publish
イオンモール浦和美園　「LASUD」,minamikantou,saitama,埼玉県さいたま市緑区美園５－５０－１　イオンモール浦和美園１Ｆ　　　,Fashion advisor,レディスアパレル・アクセサリー・ファッション雑貨の接客販売を中心に、商品整理やディスプレイの変更補助など、店舗業務全般に携わっていただきます。, parttime_work,時給９５０円～,高卒以上、年齢不問、経験不問、長期勤務できる方歓迎、学生・フリーター歓迎、扶養内勤務OK,応相談、シフト自己申告制（1カ月単位）、週３日～勤務OK、平日のみ勤務OK、土日祝のみ勤務OK,8:30~22:00、１５時まで勤務OK、夕方～閉店まで勤務OK、実働５時間～勤務歓迎,"スタッフ割引あり、昇給あり、報奨金制度あり、社員登用制度あり、交通費支給（1,000円／日）、
※車通勤の可否は店舗により異なりますので詳しくはお問い合わせください。
ノルマなし、服装・髪型・ネイル自由（ショップの雰囲気に合っていれば着用ブランドは問いません）",応募フォームまたは希望店舗へお電話にてご応募ください。,"希望店舗または下記までお電話ください。
052-531-9143（本社採用課）",part_time,recruit_detail,publish
イオンモール羽生　「Vin」「CLOVE」,minamikantou,saitama,埼玉県羽生市川崎２－２８１－３　イオンモール羽生１Ｆ　　　　　,Fashion advisor,レディスアパレル・アクセサリー・ファッション雑貨の接客販売を中心に、商品整理やディスプレイの変更補助など、店舗業務全般に携わっていただきます。, parttime_work,時給９５０円～,高卒以上、年齢不問、経験不問、長期勤務できる方歓迎、学生・フリーター歓迎、扶養内勤務OK,応相談、シフト自己申告制（1カ月単位）、週３日～勤務OK、平日のみ勤務OK、土日祝のみ勤務OK,9:30~22:00、１５時まで勤務OK、夕方～閉店まで勤務OK、実働５時間～勤務歓迎,"スタッフ割引あり、昇給あり、報奨金制度あり、社員登用制度あり、交通費支給（1,000円／日）、
※車通勤の可否は店舗により異なりますので詳しくはお問い合わせください。
ノルマなし、服装・髪型・ネイル自由（ショップの雰囲気に合っていれば着用ブランドは問いません）",応募フォームまたは希望店舗へお電話にてご応募ください。,"希望店舗または下記までお電話ください。
052-531-9143（本社採用課）",part_time,recruit_detail,publish
イオンレイクタウンmori　「Vin」「CLOVE」,minamikantou,saitama,埼玉県越谷市レイクタウン３－１－１　イオンレイクタウンmori ２Ｆ,Fashion advisor,レディスアパレル・アクセサリー・ファッション雑貨の接客販売を中心に、商品整理やディスプレイの変更補助など、店舗業務全般に携わっていただきます。, parttime_work,時給９５０円～,高卒以上、年齢不問、経験不問、長期勤務できる方歓迎、学生・フリーター歓迎、扶養内勤務OK,応相談、シフト自己申告制（1カ月単位）、週３日～勤務OK、平日のみ勤務OK、土日祝のみ勤務OK,8:30~22:00、１５時まで勤務OK、夕方～閉店まで勤務OK、実働５時間～勤務歓迎,"スタッフ割引あり、昇給あり、報奨金制度あり、社員登用制度あり、交通費支給（1,000円／日）、
※車通勤の可否は店舗により異なりますので詳しくはお問い合わせください。
ノルマなし、服装・髪型・ネイル自由（ショップの雰囲気に合っていれば着用ブランドは問いません）",応募フォームまたは希望店舗へお電話にてご応募ください。,"希望店舗または下記までお電話ください。
052-531-9143（本社採用課）",part_time,recruit_detail,publish
イオンモール春日部　「LASUD」,minamikantou,saitama,埼玉県春日部市下柳４２０－１　イオンモール春日部１F　,Fashion advisor,レディスアパレル・アクセサリー・ファッション雑貨の接客販売を中心に、商品整理やディスプレイの変更補助など、店舗業務全般に携わっていただきます。, parttime_work,時給９５０円～,高卒以上、年齢不問、経験不問、長期勤務できる方歓迎、学生・フリーター歓迎、扶養内勤務OK,応相談、シフト自己申告制（1カ月単位）、週３日～勤務OK、平日のみ勤務OK、土日祝のみ勤務OK,9:30~21:00、１５時まで勤務OK、夕方～閉店まで勤務OK、実働５時間～勤務歓迎,"スタッフ割引あり、昇給あり、報奨金制度あり、社員登用制度あり、交通費支給（1,000円／日）、
※車通勤の可否は店舗により異なりますので詳しくはお問い合わせください。
ノルマなし、服装・髪型・ネイル自由（ショップの雰囲気に合っていれば着用ブランドは問いません）",応募フォームまたは希望店舗へお電話にてご応募ください。,"希望店舗または下記までお電話ください。
052-531-9143（本社採用課）",part_time,recruit_detail,publish
ららぽーと富士見　「LASUD」,minamikantou,saitama,埼玉県富士見市山室１－１３１３　ららぽーと富士見１Ｆ　,Fashion advisor,レディスアパレル・アクセサリー・ファッション雑貨の接客販売を中心に、商品整理やディスプレイの変更補助など、店舗業務全般に携わっていただきます。, parttime_work,時給９５０円～,高卒以上、年齢不問、経験不問、長期勤務できる方歓迎、学生・フリーター歓迎、扶養内勤務OK,応相談、シフト自己申告制（1カ月単位）、週３日～勤務OK、平日のみ勤務OK、土日祝のみ勤務OK,9:30~21:00、１５時まで勤務OK、夕方～閉店まで勤務OK、実働５時間～勤務歓迎,"スタッフ割引あり、昇給あり、報奨金制度あり、社員登用制度あり、交通費支給（1,000円／日）、
※車通勤の可否は店舗により異なりますので詳しくはお問い合わせください。
ノルマなし、服装・髪型・ネイル自由（ショップの雰囲気に合っていれば着用ブランドは問いません）",応募フォームまたは希望店舗へお電話にてご応募ください。,"希望店舗または下記までお電話ください。
052-531-9143（本社採用課）",part_time,recruit_detail,publish
イオンモール浜松志都呂　「MEDOC」,tokai_area,shizuoka,静岡県浜松市西区志都呂２－３７－１　イオンモール浜松志都呂１Ｆ　　,Fashion advisor,レディスアパレル・アクセサリー・ファッション雑貨の接客販売を中心に、商品整理やディスプレイの変更補助など、店舗業務全般に携わっていただきます。, parttime_work,時給９５０円～,高卒以上、年齢不問、経験不問、長期勤務できる方歓迎、学生・フリーター歓迎、扶養内勤務OK,応相談、シフト自己申告制（1カ月単位）、週３日～勤務OK、平日のみ勤務OK、土日祝のみ勤務OK,9:30～21:00、１５時まで勤務OK、夕方～閉店まで勤務OK、実働５時間～勤務歓迎,"スタッフ割引あり、昇給あり、報奨金制度あり、社員登用制度あり、交通費支給（1,000円／日）、
※車通勤の可否は店舗により異なりますので詳しくはお問い合わせください。
ノルマなし、服装・髪型・ネイル自由（ショップの雰囲気に合っていれば着用ブランドは問いません）",応募フォームまたは希望店舗へお電話にてご応募ください。,"希望店舗または下記までお電話ください。
052-531-9143（本社採用課）",part_time,recruit_detail,publish
イオンモール浜松市野　「LASUD」「Vin」,tokai_area,shizuoka,静岡県浜松市東区天王町字諏訪１９８１－３　イオンモール浜松市野１Ｆ　　　,Fashion advisor,レディスアパレル・アクセサリー・ファッション雑貨の接客販売を中心に、商品整理やディスプレイの変更補助など、店舗業務全般に携わっていただきます。, parttime_work,時給９５０円～,高卒以上、年齢不問、経験不問、長期勤務できる方歓迎、学生・フリーター歓迎、扶養内勤務OK,応相談、シフト自己申告制（1カ月単位）、週３日～勤務OK、平日のみ勤務OK、土日祝のみ勤務OK,8:30~22:00、１５時まで勤務OK、夕方～閉店まで勤務OK、実働５時間～勤務歓迎,"スタッフ割引あり、昇給あり、報奨金制度あり、社員登用制度あり、交通費支給（1,000円／日）、
※車通勤の可否は店舗により異なりますので詳しくはお問い合わせください。
ノルマなし、服装・髪型・ネイル自由（ショップの雰囲気に合っていれば着用ブランドは問いません）",応募フォームまたは希望店舗へお電話にてご応募ください。,"希望店舗または下記までお電話ください。
052-531-9143（本社採用課）",part_time,recruit_detail,publish
アピタ静岡　「LASUD・SCOTCLUB」,tokai_area,shizuoka,静岡県静岡市駿河区石田１－５－１　アピタ静岡２Ｆ　　　　　　　　,Fashion advisor,レディスアパレル・アクセサリー・ファッション雑貨の接客販売を中心に、商品整理やディスプレイの変更補助など、店舗業務全般に携わっていただきます。, parttime_work,時給９５０円～,高卒以上、年齢不問、経験不問、長期勤務できる方歓迎、学生・フリーター歓迎、扶養内勤務OK,応相談、シフト自己申告制（1カ月単位）、週３日～勤務OK、平日のみ勤務OK、土日祝のみ勤務OK,9:30~21:30、１５時まで勤務OK、夕方～閉店まで勤務OK、実働５時間～勤務歓迎,"スタッフ割引あり、昇給あり、報奨金制度あり、社員登用制度あり、交通費支給（1,000円／日）、
※車通勤の可否は店舗により異なりますので詳しくはお問い合わせください。
ノルマなし、服装・髪型・ネイル自由（ショップの雰囲気に合っていれば着用ブランドは問いません）",応募フォームまたは希望店舗へお電話にてご応募ください。,"希望店舗または下記までお電話ください。
052-531-9143（本社採用課）",part_time,recruit_detail,publish
ららぽーと沼津　「Vin」,tokai_area,shizuoka,静岡県沼津市東椎路字東荒３０１－３　ららぽーと沼津１Ｆ　　　　　　,Fashion advisor,レディスアパレル・アクセサリー・ファッション雑貨の接客販売を中心に、商品整理やディスプレイの変更補助など、店舗業務全般に携わっていただきます。, parttime_work,時給９５０円～,高卒以上、年齢不問、経験不問、長期勤務できる方歓迎、学生・フリーター歓迎、扶養内勤務OK,応相談、シフト自己申告制（1カ月単位）、週３日～勤務OK、平日のみ勤務OK、土日祝のみ勤務OK,9:30~21:00、１５時まで勤務OK、夕方～閉店まで勤務OK、実働５時間～勤務歓迎,"スタッフ割引あり、昇給あり、報奨金制度あり、社員登用制度あり、交通費支給（1,000円／日）、
※車通勤の可否は店舗により異なりますので詳しくはお問い合わせください。
ノルマなし、服装・髪型・ネイル自由（ショップの雰囲気に合っていれば着用ブランドは問いません）",応募フォームまたは希望店舗へお電話にてご応募ください。,"希望店舗または下記までお電話ください。
052-531-9143（本社採用課）",part_time,recruit_detail,publish
サカエチカ　「Sud et Nord」,tokai_area,aichi,愛知県名古屋市中区栄３－４－６先　サカエチカ　　　　　　　　　　,Fashion advisor,レディスアパレル・アクセサリー・ファッション雑貨の接客販売を中心に、商品整理やディスプレイの変更補助など、店舗業務全般に携わっていただきます。, parttime_work,時給９５０円～,高卒以上、年齢不問、経験不問、長期勤務できる方歓迎、学生・フリーター歓迎、扶養内勤務OK,応相談、シフト自己申告制（1カ月単位）、週３日～勤務OK、平日のみ勤務OK、土日祝のみ勤務OK,9:30~20:00、１５時まで勤務OK、夕方～閉店まで勤務OK、実働５時間～勤務歓迎,"スタッフ割引あり、昇給あり、報奨金制度あり、社員登用制度あり、交通費支給（1,000円／日）、
※車通勤の可否は店舗により異なりますので詳しくはお問い合わせください。
ノルマなし、服装・髪型・ネイル自由（ショップの雰囲気に合っていれば着用ブランドは問いません）",応募フォームまたは希望店舗へお電話にてご応募ください。,"希望店舗または下記までお電話ください。
052-531-9143（本社採用課）",part_time,recruit_detail,publish
栄 森の地下街 南三番街　「Boncoin」,tokai_area,aichi,愛知県名古屋市中区栄３－５－１２先　栄東地下街　　　　　　　　　　,Fashion advisor,レディスアパレル・アクセサリー・ファッション雑貨の接客販売を中心に、商品整理やディスプレイの変更補助など、店舗業務全般に携わっていただきます。, parttime_work,時給９５０円～,高卒以上、年齢不問、経験不問、長期勤務できる方歓迎、学生・フリーター歓迎、扶養内勤務OK,応相談、シフト自己申告制（1カ月単位）、週３日～勤務OK、平日のみ勤務OK、土日祝のみ勤務OK,9:30~20:30、１５時まで勤務OK、夕方～閉店まで勤務OK、実働５時間～勤務歓迎,"スタッフ割引あり、昇給あり、報奨金制度あり、社員登用制度あり、交通費支給（1,000円／日）、
※車通勤の可否は店舗により異なりますので詳しくはお問い合わせください。
ノルマなし、服装・髪型・ネイル自由（ショップの雰囲気に合っていれば着用ブランドは問いません）",応募フォームまたは希望店舗へお電話にてご応募ください。,"希望店舗または下記までお電話ください。
052-531-9143（本社採用課）",part_time,recruit_detail,publish
栄 森の地下街 南四番街　「MIREPOIX」,tokai_area,aichi,愛知県名古屋市中区栄３－５－１２先　栄南地下街　　　　　　　　　　,Fashion advisor,レディスアパレル・アクセサリー・ファッション雑貨の接客販売を中心に、商品整理やディスプレイの変更補助など、店舗業務全般に携わっていただきます。, parttime_work,時給９５０円～,高卒以上、年齢不問、経験不問、長期勤務できる方歓迎、学生・フリーター歓迎、扶養内勤務OK,応相談、シフト自己申告制（1カ月単位）、週３日～勤務OK、平日のみ勤務OK、土日祝のみ勤務OK,9:30~20:30、１５時まで勤務OK、夕方～閉店まで勤務OK、実働５時間～勤務歓迎,"スタッフ割引あり、昇給あり、報奨金制度あり、社員登用制度あり、交通費支給（1,000円／日）、
※車通勤の可否は店舗により異なりますので詳しくはお問い合わせください。
ノルマなし、服装・髪型・ネイル自由（ショップの雰囲気に合っていれば着用ブランドは問いません）",応募フォームまたは希望店舗へお電話にてご応募ください。,"希望店舗または下記までお電話ください。
052-531-9143（本社採用課）",part_time,recruit_detail,publish
ユニモール　「Bouchon」,tokai_area,aichi,愛知県名古屋市中村区名駅４－５－２６先　ユニモール　　　　　　　　　　,Fashion advisor,レディスアパレル・アクセサリー・ファッション雑貨の接客販売を中心に、商品整理やディスプレイの変更補助など、店舗業務全般に携わっていただきます。, parttime_work,時給９５０円～,高卒以上、年齢不問、経験不問、長期勤務できる方歓迎、学生・フリーター歓迎、扶養内勤務OK,応相談、シフト自己申告制（1カ月単位）、週３日～勤務OK、平日のみ勤務OK、土日祝のみ勤務OK,9:30~20:30、１５時まで勤務OK、夕方～閉店まで勤務OK、実働５時間～勤務歓迎,"スタッフ割引あり、昇給あり、報奨金制度あり、社員登用制度あり、交通費支給（1,000円／日）、
※車通勤の可否は店舗により異なりますので詳しくはお問い合わせください。
ノルマなし、服装・髪型・ネイル自由（ショップの雰囲気に合っていれば着用ブランドは問いません）",応募フォームまたは希望店舗へお電話にてご応募ください。,"希望店舗または下記までお電話ください。
052-531-9143（本社採用課）",part_time,recruit_detail,publish
メイチカ　「PHYLO」,tokai_area,aichi,愛知県　名古屋市中村区名駅３－１４－１５先　メイチカ　　　　　　　　,Fashion advisor,レディスアパレル・アクセサリー・ファッション雑貨の接客販売を中心に、商品整理やディスプレイの変更補助など、店舗業務全般に携わっていただきます。, parttime_work,時給９５０円～,高卒以上、年齢不問、経験不問、長期勤務できる方歓迎、学生・フリーター歓迎、扶養内勤務OK,応相談、シフト自己申告制（1カ月単位）、週３日～勤務OK、平日のみ勤務OK、土日祝のみ勤務OK,9:30~20:30、１５時まで勤務OK、夕方～閉店まで勤務OK、実働５時間～勤務歓迎,"スタッフ割引あり、昇給あり、報奨金制度あり、社員登用制度あり、交通費支給（1,000円／日）、
※車通勤の可否は店舗により異なりますので詳しくはお問い合わせください。
ノルマなし、服装・髪型・ネイル自由（ショップの雰囲気に合っていれば着用ブランドは問いません）",応募フォームまたは希望店舗へお電話にてご応募ください。,"希望店舗または下記までお電話ください。
052-531-9143（本社採用課）",part_time,recruit_detail,publish
エスカ　「Aga　JAPAN」,tokai_area,aichi,愛知県名古屋市中村区椿町６－９先　　　　　　　　　　　　　　　　　　　　　　　　　　　　　,Fashion advisor,レディスアパレル・アクセサリー・ファッション雑貨の接客販売を中心に、商品整理やディスプレイの変更補助など、店舗業務全般に携わっていただきます。, parttime_work,時給９５０円～,高卒以上、年齢不問、経験不問、長期勤務できる方歓迎、学生・フリーター歓迎、扶養内勤務OK,応相談、シフト自己申告制（1カ月単位）、週３日～勤務OK、平日のみ勤務OK、土日祝のみ勤務OK,9:30~20:30、１５時まで勤務OK、夕方～閉店まで勤務OK、実働５時間～勤務歓迎,"スタッフ割引あり、昇給あり、報奨金制度あり、社員登用制度あり、交通費支給（1,000円／日）、
※車通勤の可否は店舗により異なりますので詳しくはお問い合わせください。
ノルマなし、服装・髪型・ネイル自由（ショップの雰囲気に合っていれば着用ブランドは問いません）",応募フォームまたは希望店舗へお電話にてご応募ください。,"希望店舗または下記までお電話ください。
052-531-9143（本社採用課）",part_time,recruit_detail,publish
イオンモール熱田　「GRANDTABLE」,tokai_area,aichi,愛知県名古屋市熱田区六野１－２－１１　イオンモール熱田１Ｆ　　　　　,Fashion advisor,レディスアパレル・アクセサリー・ファッション雑貨の接客販売を中心に、商品整理やディスプレイの変更補助など、店舗業務全般に携わっていただきます。, parttime_work,時給９５０円～,高卒以上、年齢不問、経験不問、長期勤務できる方歓迎、学生・フリーター歓迎、扶養内勤務OK,応相談、シフト自己申告制（1カ月単位）、週３日～勤務OK、平日のみ勤務OK、土日祝のみ勤務OK,8:30~22:00、１５時まで勤務OK、夕方～閉店まで勤務OK、実働５時間～勤務歓迎,"スタッフ割引あり、昇給あり、報奨金制度あり、社員登用制度あり、交通費支給（1,000円／日）、
※車通勤の可否は店舗により異なりますので詳しくはお問い合わせください。
ノルマなし、服装・髪型・ネイル自由（ショップの雰囲気に合っていれば着用ブランドは問いません）",応募フォームまたは希望店舗へお電話にてご応募ください。,"希望店舗または下記までお電話ください。
052-531-9143（本社採用課）",part_time,recruit_detail,publish
イオンモールナゴヤドーム前　「LASUD」,tokai_area,aichi,愛知県名古屋市東区矢田南４－１０２－３　イオンモールナゴヤドーム前１Ｆ,Fashion advisor,レディスアパレル・アクセサリー・ファッション雑貨の接客販売を中心に、商品整理やディスプレイの変更補助など、店舗業務全般に携わっていただきます。, parttime_work,時給９５０円～,高卒以上、年齢不問、経験不問、長期勤務できる方歓迎、学生・フリーター歓迎、扶養内勤務OK,応相談、シフト自己申告制（1カ月単位）、週３日～勤務OK、平日のみ勤務OK、土日祝のみ勤務OK,8:30~22:00、１５時まで勤務OK、夕方～閉店まで勤務OK、実働５時間～勤務歓迎,"スタッフ割引あり、昇給あり、報奨金制度あり、社員登用制度あり、交通費支給（1,000円／日）、
※車通勤の可否は店舗により異なりますので詳しくはお問い合わせください。
ノルマなし、服装・髪型・ネイル自由（ショップの雰囲気に合っていれば着用ブランドは問いません）",応募フォームまたは希望店舗へお電話にてご応募ください。,"希望店舗または下記までお電話ください。
052-531-9143（本社採用課）",part_time,recruit_detail,publish
イオンモール大高　「MEDOC」「Vin」,tokai_area,aichi,愛知県名古屋市緑区南大高２－４５０　イオンモール大高１Ｆ　　　　　,Fashion advisor,レディスアパレル・アクセサリー・ファッション雑貨の接客販売を中心に、商品整理やディスプレイの変更補助など、店舗業務全般に携わっていただきます。, parttime_work,時給９５０円～,高卒以上、年齢不問、経験不問、長期勤務できる方歓迎、学生・フリーター歓迎、扶養内勤務OK,応相談、シフト自己申告制（1カ月単位）、週３日～勤務OK、平日のみ勤務OK、土日祝のみ勤務OK,8:30~22:00、１５時まで勤務OK、夕方～閉店まで勤務OK、実働５時間～勤務歓迎,"スタッフ割引あり、昇給あり、報奨金制度あり、社員登用制度あり、交通費支給（1,000円／日）、
※車通勤の可否は店舗により異なりますので詳しくはお問い合わせください。
ノルマなし、服装・髪型・ネイル自由（ショップの雰囲気に合っていれば着用ブランドは問いません）",応募フォームまたは希望店舗へお電話にてご応募ください。,"希望店舗または下記までお電話ください。
052-531-9143（本社採用課）",part_time,recruit_detail,publish
MOZOワンダーシティ　「MEDOC branche」「Vin」,tokai_area,aichi,愛知県名古屋市西区二方町４０　mozoワンダーシティ１Ｆ,Fashion advisor,レディスアパレル・アクセサリー・ファッション雑貨の接客販売を中心に、商品整理やディスプレイの変更補助など、店舗業務全般に携わっていただきます。, parttime_work,時給９５０円～,高卒以上、年齢不問、経験不問、長期勤務できる方歓迎、学生・フリーター歓迎、扶養内勤務OK,応相談、シフト自己申告制（1カ月単位）、週３日～勤務OK、平日のみ勤務OK、土日祝のみ勤務OK,9:30~22:00、１５時まで勤務OK、夕方～閉店まで勤務OK、実働５時間～勤務歓迎,"スタッフ割引あり、昇給あり、報奨金制度あり、社員登用制度あり、交通費支給（1,000円／日）、
※車通勤の可否は店舗により異なりますので詳しくはお問い合わせください。
ノルマなし、服装・髪型・ネイル自由（ショップの雰囲気に合っていれば着用ブランドは問いません）",応募フォームまたは希望店舗へお電話にてご応募ください。,"希望店舗または下記までお電話ください。
052-531-9143（本社採用課）",part_time,recruit_detail,publish
イオンモール名古屋茶屋　「MEDOC」,tokai_area,aichi,愛知県名古屋市港区西茶屋２－１１　イオンモール名古屋茶屋１Ｆ　　,Fashion advisor,レディスアパレル・アクセサリー・ファッション雑貨の接客販売を中心に、商品整理やディスプレイの変更補助など、店舗業務全般に携わっていただきます。, parttime_work,時給９５０円～,高卒以上、年齢不問、経験不問、長期勤務できる方歓迎、学生・フリーター歓迎、扶養内勤務OK,応相談、シフト自己申告制（1カ月単位）、週３日～勤務OK、平日のみ勤務OK、土日祝のみ勤務OK,8:30~21:00、１５時まで勤務OK、夕方～閉店まで勤務OK、実働５時間～勤務歓迎,"スタッフ割引あり、昇給あり、報奨金制度あり、社員登用制度あり、交通費支給（1,000円／日）、
※車通勤の可否は店舗により異なりますので詳しくはお問い合わせください。
ノルマなし、服装・髪型・ネイル自由（ショップの雰囲気に合っていれば着用ブランドは問いません）",応募フォームまたは希望店舗へお電話にてご応募ください。,"希望店舗または下記までお電話ください。
052-531-9143（本社採用課）",part_time,recruit_detail,publish
ららぽーと名古屋港アクルス　「cle」,tokai_area,aichi,愛知県名古屋市港区港明２－３－２　ららぽーと名古屋みなとアクルス１階,Fashion advisor,レディスアパレル・アクセサリー・ファッション雑貨の接客販売を中心に、商品整理やディスプレイの変更補助など、店舗業務全般に携わっていただきます。, parttime_work,時給９５０円～,高卒以上、年齢不問、経験不問、長期勤務できる方歓迎、学生・フリーター歓迎、扶養内勤務OK,応相談、シフト自己申告制（1カ月単位）、週３日～勤務OK、平日のみ勤務OK、土日祝のみ勤務OK,9:30~21:00、１５時まで勤務OK、夕方～閉店まで勤務OK、実働５時間～勤務歓迎,"スタッフ割引あり、昇給あり、報奨金制度あり、社員登用制度あり、交通費支給（1,000円／日）、
※車通勤の可否は店舗により異なりますので詳しくはお問い合わせください。
ノルマなし、服装・髪型・ネイル自由（ショップの雰囲気に合っていれば着用ブランドは問いません）",応募フォームまたは希望店舗へお電話にてご応募ください。,"希望店舗または下記までお電話ください。
052-531-9143（本社採用課）",part_time,recruit_detail,publish
イオンモール岡崎　「LASUD」「Vin」「CLOVE」,tokai_area,aichi,愛知県岡崎市戸崎町外山３８－５　イオンモール岡崎２Ｆ　　,Fashion advisor,レディスアパレル・アクセサリー・ファッション雑貨の接客販売を中心に、商品整理やディスプレイの変更補助など、店舗業務全般に携わっていただきます。, parttime_work,時給９５０円～,高卒以上、年齢不問、経験不問、長期勤務できる方歓迎、学生・フリーター歓迎、扶養内勤務OK,応相談、シフト自己申告制（1カ月単位）、週３日～勤務OK、平日のみ勤務OK、土日祝のみ勤務OK,9:30~22:00、１５時まで勤務OK、夕方～閉店まで勤務OK、実働５時間～勤務歓迎,"スタッフ割引あり、昇給あり、報奨金制度あり、社員登用制度あり、交通費支給（1,000円／日）、
※車通勤の可否は店舗により異なりますので詳しくはお問い合わせください。
ノルマなし、服装・髪型・ネイル自由（ショップの雰囲気に合っていれば着用ブランドは問いません）",応募フォームまたは希望店舗へお電話にてご応募ください。,"希望店舗または下記までお電話ください。
052-531-9143（本社採用課）",part_time,recruit_detail,publish
イオン三好店 アイ・モール　「SCOTCLUB」,tokai_area,aichi,愛知県みよし市三好町青木８８番地　アイモール三好１Ｆ　　　　　　,Fashion advisor,レディスアパレル・アクセサリー・ファッション雑貨の接客販売を中心に、商品整理やディスプレイの変更補助など、店舗業務全般に携わっていただきます。, parttime_work,時給９５０円～,高卒以上、年齢不問、経験不問、長期勤務できる方歓迎、学生・フリーター歓迎、扶養内勤務OK,応相談、シフト自己申告制（1カ月単位）、週３日～勤務OK、平日のみ勤務OK、土日祝のみ勤務OK,9:30~21:00、１５時まで勤務OK、夕方～閉店まで勤務OK、実働５時間～勤務歓迎,"スタッフ割引あり、昇給あり、報奨金制度あり、社員登用制度あり、交通費支給（1,000円／日）、
※車通勤の可否は店舗により異なりますので詳しくはお問い合わせください。
ノルマなし、服装・髪型・ネイル自由（ショップの雰囲気に合っていれば着用ブランドは問いません）",応募フォームまたは希望店舗へお電話にてご応募ください。,"希望店舗または下記までお電話ください。
052-531-9143（本社採用課）",part_time,recruit_detail,publish
アピタ長久手　「FENNEL」,tokai_area,aichi,愛知県長久手市戸田谷９０１番地　アピタ長久手１Ｆ　　　　　　　,Fashion advisor,レディスアパレル・アクセサリー・ファッション雑貨の接客販売を中心に、商品整理やディスプレイの変更補助など、店舗業務全般に携わっていただきます。, parttime_work,時給９５０円～,高卒以上、年齢不問、経験不問、長期勤務できる方歓迎、学生・フリーター歓迎、扶養内勤務OK,応相談、シフト自己申告制（1カ月単位）、週３日～勤務OK、平日のみ勤務OK、土日祝のみ勤務OK,9:30~21:30、１５時まで勤務OK、夕方～閉店まで勤務OK、実働５時間～勤務歓迎,"スタッフ割引あり、昇給あり、報奨金制度あり、社員登用制度あり、交通費支給（1,000円／日）、
※車通勤の可否は店舗により異なりますので詳しくはお問い合わせください。
ノルマなし、服装・髪型・ネイル自由（ショップの雰囲気に合っていれば着用ブランドは問いません）",応募フォームまたは希望店舗へお電話にてご応募ください。,"希望店舗または下記までお電話ください。
052-531-9143（本社採用課）",part_time,recruit_detail,publish
イオンモール長久手　「CLOVE」「CONDIMENT」,tokai_area,aichi,愛知県長久手市長久手中央土地区画整理事業地内５・１０・１１街区　イオンモール長久手２Ｆ　　　　,Fashion advisor,レディスアパレル・アクセサリー・ファッション雑貨の接客販売を中心に、商品整理やディスプレイの変更補助など、店舗業務全般に携わっていただきます。, parttime_work,時給９５０円～,高卒以上、年齢不問、経験不問、長期勤務できる方歓迎、学生・フリーター歓迎、扶養内勤務OK,応相談、シフト自己申告制（1カ月単位）、週３日～勤務OK、平日のみ勤務OK、土日祝のみ勤務OK,9:30~22:00、１５時まで勤務OK、夕方～閉店まで勤務OK、実働５時間～勤務歓迎,"スタッフ割引あり、昇給あり、報奨金制度あり、社員登用制度あり、交通費支給（1,000円／日）、
※車通勤の可否は店舗により異なりますので詳しくはお問い合わせください。
ノルマなし、服装・髪型・ネイル自由（ショップの雰囲気に合っていれば着用ブランドは問いません）",応募フォームまたは希望店舗へお電話にてご応募ください。,"希望店舗または下記までお電話ください。
052-531-9143（本社採用課）",part_time,recruit_detail,publish
イオンモール東浦　「MEDOC」,tokai_area,aichi,愛知県知多郡東浦町大字緒川字旭１３－２　イオンモール東浦１Ｆ　　　　　,Fashion advisor,レディスアパレル・アクセサリー・ファッション雑貨の接客販売を中心に、商品整理やディスプレイの変更補助など、店舗業務全般に携わっていただきます。, parttime_work,時給９５０円～,高卒以上、年齢不問、経験不問、長期勤務できる方歓迎、学生・フリーター歓迎、扶養内勤務OK,応相談、シフト自己申告制（1カ月単位）、週３日～勤務OK、平日のみ勤務OK、土日祝のみ勤務OK,9:30~22:00、１５時まで勤務OK、夕方～閉店まで勤務OK、実働５時間～勤務歓迎,"スタッフ割引あり、昇給あり、報奨金制度あり、社員登用制度あり、交通費支給（1,000円／日）、
※車通勤の可否は店舗により異なりますので詳しくはお問い合わせください。
ノルマなし、服装・髪型・ネイル自由（ショップの雰囲気に合っていれば着用ブランドは問いません）",応募フォームまたは希望店舗へお電話にてご応募ください。,"希望店舗または下記までお電話ください。
052-531-9143（本社採用課）",part_time,recruit_detail,publish
イオンモール木曽川　「LASUD・GRANDTABLE」,tokai_area,aichi,愛知県一宮市木曽川町黒田字南八ツケ池２５－１　イオンモール木曽川２Ｆ　　　　,Fashion advisor,レディスアパレル・アクセサリー・ファッション雑貨の接客販売を中心に、商品整理やディスプレイの変更補助など、店舗業務全般に携わっていただきます。, parttime_work,時給９５０円～,高卒以上、年齢不問、経験不問、長期勤務できる方歓迎、学生・フリーター歓迎、扶養内勤務OK,応相談、シフト自己申告制（1カ月単位）、週３日～勤務OK、平日のみ勤務OK、土日祝のみ勤務OK,9:30~22:00、１５時まで勤務OK、夕方～閉店まで勤務OK、実働５時間～勤務歓迎,"スタッフ割引あり、昇給あり、報奨金制度あり、社員登用制度あり、交通費支給（1,000円／日）、
※車通勤の可否は店舗により異なりますので詳しくはお問い合わせください。
ノルマなし、服装・髪型・ネイル自由（ショップの雰囲気に合っていれば着用ブランドは問いません）",応募フォームまたは希望店舗へお電話にてご応募ください。,"希望店舗または下記までお電話ください。
052-531-9143（本社採用課）",part_time,recruit_detail,publish
カラフルタウン　１F　「SCOTCLUB」,tokai_area,gifu ,岐阜県岐阜市柳津町丸野３－３－６　カラフルタウン２Ｆ　　　　　　,Fashion advisor,レディスアパレル・アクセサリー・ファッション雑貨の接客販売を中心に、商品整理やディスプレイの変更補助など、店舗業務全般に携わっていただきます。, parttime_work,時給９５０円～,高卒以上、年齢不問、経験不問、長期勤務できる方歓迎、学生・フリーター歓迎、扶養内勤務OK,応相談、シフト自己申告制（1カ月単位）、週３日～勤務OK、平日のみ勤務OK、土日祝のみ勤務OK,9:30~21:00、１５時まで勤務OK、夕方～閉店まで勤務OK、実働５時間～勤務歓迎,"スタッフ割引あり、昇給あり、報奨金制度あり、社員登用制度あり、交通費支給（1,000円／日）、
※車通勤の可否は店舗により異なりますので詳しくはお問い合わせください。
ノルマなし、服装・髪型・ネイル自由（ショップの雰囲気に合っていれば着用ブランドは問いません）",応募フォームまたは希望店舗へお電話にてご応募ください。,"希望店舗または下記までお電話ください。
052-531-9143（本社採用課）",part_time,recruit_detail,publish
イオンモール大垣　１F　「LASUD」,tokai_area,gifu ,岐阜県大垣市外野２－１００　イオンモール大垣１Ｆ　　　　　,Fashion advisor,レディスアパレル・アクセサリー・ファッション雑貨の接客販売を中心に、商品整理やディスプレイの変更補助など、店舗業務全般に携わっていただきます。, parttime_work,時給９５０円～,高卒以上、年齢不問、経験不問、長期勤務できる方歓迎、学生・フリーター歓迎、扶養内勤務OK,応相談、シフト自己申告制（1カ月単位）、週３日～勤務OK、平日のみ勤務OK、土日祝のみ勤務OK,8:30~21:00、１５時まで勤務OK、夕方～閉店まで勤務OK、実働５時間～勤務歓迎,"スタッフ割引あり、昇給あり、報奨金制度あり、社員登用制度あり、交通費支給（1,000円／日）、
※車通勤の可否は店舗により異なりますので詳しくはお問い合わせください。
ノルマなし、服装・髪型・ネイル自由（ショップの雰囲気に合っていれば着用ブランドは問いません）",応募フォームまたは希望店舗へお電話にてご応募ください。,"希望店舗または下記までお電話ください。
052-531-9143（本社採用課）",part_time,recruit_detail,publish
イオンモール各務原　１F　「MEDOC」,tokai_area,gifu ,岐阜県各務原市那加萱場町３－８　イオンモール各務原１Ｆ　　　　,Fashion advisor,レディスアパレル・アクセサリー・ファッション雑貨の接客販売を中心に、商品整理やディスプレイの変更補助など、店舗業務全般に携わっていただきます。, parttime_work,時給９５０円～,高卒以上、年齢不問、経験不問、長期勤務できる方歓迎、学生・フリーター歓迎、扶養内勤務OK,応相談、シフト自己申告制（1カ月単位）、週３日～勤務OK、平日のみ勤務OK、土日祝のみ勤務OK,8:30~22:00、１５時まで勤務OK、夕方～閉店まで勤務OK、実働５時間～勤務歓迎,"スタッフ割引あり、昇給あり、報奨金制度あり、社員登用制度あり、交通費支給（1,000円／日）、
※車通勤の可否は店舗により異なりますので詳しくはお問い合わせください。
ノルマなし、服装・髪型・ネイル自由（ショップの雰囲気に合っていれば着用ブランドは問いません）",応募フォームまたは希望店舗へお電話にてご応募ください。,"希望店舗または下記までお電話ください。
052-531-9143（本社採用課）",part_time,recruit_detail,publish
イオンモール桑名 ANQ専門店街　「Vin」　,tokai_area,triple,三重県桑名市新西方１－２２　イオンモール桑名一番街アンク専門店街　,Fashion advisor,レディスアパレル・アクセサリー・ファッション雑貨の接客販売を中心に、商品整理やディスプレイの変更補助など、店舗業務全般に携わっていただきます。, parttime_work,時給９５０円～,高卒以上、年齢不問、経験不問、長期勤務できる方歓迎、学生・フリーター歓迎、扶養内勤務OK,応相談、シフト自己申告制（1カ月単位）、週３日～勤務OK、平日のみ勤務OK、土日祝のみ勤務OK,9:30~21:00、１５時まで勤務OK、夕方～閉店まで勤務OK、実働５時間～勤務歓迎,"スタッフ割引あり、昇給あり、報奨金制度あり、社員登用制度あり、交通費支給（1,000円／日）、
※車通勤の可否は店舗により異なりますので詳しくはお問い合わせください。
ノルマなし、服装・髪型・ネイル自由（ショップの雰囲気に合っていれば着用ブランドは問いません）",応募フォームまたは希望店舗へお電話にてご応募ください。,"希望店舗または下記までお電話ください。
052-531-9143（本社採用課）",part_time,recruit_detail,publish
イオンモール鈴鹿　「MEDOC」,tokai_area,triple,三重県鈴鹿市庄野羽山４－１－２　イオンモール鈴鹿１Ｆ　　　　　,Fashion advisor,レディスアパレル・アクセサリー・ファッション雑貨の接客販売を中心に、商品整理やディスプレイの変更補助など、店舗業務全般に携わっていただきます。, parttime_work,時給９５０円～,高卒以上、年齢不問、経験不問、長期勤務できる方歓迎、学生・フリーター歓迎、扶養内勤務OK,応相談、シフト自己申告制（1カ月単位）、週３日～勤務OK、平日のみ勤務OK、土日祝のみ勤務OK,9:30~22:00、１５時まで勤務OK、夕方～閉店まで勤務OK、実働５時間～勤務歓迎,"スタッフ割引あり、昇給あり、報奨金制度あり、社員登用制度あり、交通費支給（1,000円／日）、
※車通勤の可否は店舗により異なりますので詳しくはお問い合わせください。
ノルマなし、服装・髪型・ネイル自由（ショップの雰囲気に合っていれば着用ブランドは問いません）",応募フォームまたは希望店舗へお電話にてご応募ください。,"希望店舗または下記までお電話ください。
052-531-9143（本社採用課）",part_time,recruit_detail,publish
イオンモール東員　「LASUD」,tokai_area,triple,三重県員弁郡東員町大字長深字築田５１０－１　イオンモール東員1F　　　　　　,Fashion advisor,レディスアパレル・アクセサリー・ファッション雑貨の接客販売を中心に、商品整理やディスプレイの変更補助など、店舗業務全般に携わっていただきます。, parttime_work,時給９５０円～,高卒以上、年齢不問、経験不問、長期勤務できる方歓迎、学生・フリーター歓迎、扶養内勤務OK,応相談、シフト自己申告制（1カ月単位）、週３日～勤務OK、平日のみ勤務OK、土日祝のみ勤務OK,9:30~21:00、１５時まで勤務OK、夕方～閉店まで勤務OK、実働５時間～勤務歓迎,"スタッフ割引あり、昇給あり、報奨金制度あり、社員登用制度あり、交通費支給（1,000円／日）、
※車通勤の可否は店舗により異なりますので詳しくはお問い合わせください。
ノルマなし、服装・髪型・ネイル自由（ショップの雰囲気に合っていれば着用ブランドは問いません）",応募フォームまたは希望店舗へお電話にてご応募ください。,"希望店舗または下記までお電話ください。
052-531-9143（本社採用課）",part_time,recruit_detail,publish
アピタ松阪三雲　「SCOTCLUB」,tokai_area,triple,三重県松阪市市場庄町１２６６－１　アピタ松阪三雲２Ｆ　　　　　　　　,Fashion advisor,レディスアパレル・アクセサリー・ファッション雑貨の接客販売を中心に、商品整理やディスプレイの変更補助など、店舗業務全般に携わっていただきます。, parttime_work,時給９５０円～,高卒以上、年齢不問、経験不問、長期勤務できる方歓迎、学生・フリーター歓迎、扶養内勤務OK,応相談、シフト自己申告制（1カ月単位）、週３日～勤務OK、平日のみ勤務OK、土日祝のみ勤務OK,9:30~21:00、１５時まで勤務OK、夕方～閉店まで勤務OK、実働５時間～勤務歓迎,"スタッフ割引あり、昇給あり、報奨金制度あり、社員登用制度あり、交通費支給（1,000円／日）、
※車通勤の可否は店舗により異なりますので詳しくはお問い合わせください。
ノルマなし、服装・髪型・ネイル自由（ショップの雰囲気に合っていれば着用ブランドは問いません）",応募フォームまたは希望店舗へお電話にてご応募ください。,"希望店舗または下記までお電話ください。
052-531-9143（本社採用課）",part_time,recruit_detail,publish
イオンモール高岡　「SCOTCLUB」,hokuriku,toyama,富山県高岡市下伏間江３８３　イオンモール高岡１F　　　　　,Fashion advisor,レディスアパレル・アクセサリー・ファッション雑貨の接客販売を中心に、商品整理やディスプレイの変更補助など、店舗業務全般に携わっていただきます。, parttime_work,時給９５０円～,高卒以上、年齢不問、経験不問、長期勤務できる方歓迎、学生・フリーター歓迎、扶養内勤務OK,応相談、シフト自己申告制（1カ月単位）、週３日～勤務OK、平日のみ勤務OK、土日祝のみ勤務OK,9:30～21:00、１５時まで勤務OK、夕方～閉店まで勤務OK、実働５時間～勤務歓迎,"スタッフ割引あり、昇給あり、報奨金制度あり、社員登用制度あり、交通費支給（1,000円／日）、
※車通勤の可否は店舗により異なりますので詳しくはお問い合わせください。
ノルマなし、服装・髪型・ネイル自由（ショップの雰囲気に合っていれば着用ブランドは問いません）",応募フォームまたは希望店舗へお電話にてご応募ください。,"希望店舗または下記までお電話ください。
052-531-9143（本社採用課）",part_time,recruit_detail,publish
イオンモールかほく　「LASUD」,hokuriku,ishikawa,石川県かほく市内日角タ２５　イオンモールかほく １Ｆ　,Fashion advisor,レディスアパレル・アクセサリー・ファッション雑貨の接客販売を中心に、商品整理やディスプレイの変更補助など、店舗業務全般に携わっていただきます。, parttime_work,時給９５０円～,高卒以上、年齢不問、経験不問、長期勤務できる方歓迎、学生・フリーター歓迎、扶養内勤務OK,応相談、シフト自己申告制（1カ月単位）、週３日～勤務OK、平日のみ勤務OK、土日祝のみ勤務OK,9:30～21:00、１５時まで勤務OK、夕方～閉店まで勤務OK、実働５時間～勤務歓迎,"スタッフ割引あり、昇給あり、報奨金制度あり、社員登用制度あり、交通費支給（1,000円／日）、
※車通勤の可否は店舗により異なりますので詳しくはお問い合わせください。
ノルマなし、服装・髪型・ネイル自由（ショップの雰囲気に合っていれば着用ブランドは問いません）",応募フォームまたは希望店舗へお電話にてご応募ください。,"希望店舗または下記までお電話ください。
052-531-9143（本社採用課）",part_time,recruit_detail,publish
金沢フォーラス　「RADIATE」,hokuriku,ishikawa,石川県金沢市堀川新町３－１　金沢フォーラス２Ｆ　　　,Fashion advisor,レディスアパレル・アクセサリー・ファッション雑貨の接客販売を中心に、商品整理やディスプレイの変更補助など、店舗業務全般に携わっていただきます。, parttime_work,時給９５０円～,高卒以上、年齢不問、経験不問、長期勤務できる方歓迎、学生・フリーター歓迎、扶養内勤務OK,応相談、シフト自己申告制（1カ月単位）、週３日～勤務OK、平日のみ勤務OK、土日祝のみ勤務OK,9:30～21:00、１５時まで勤務OK、夕方～閉店まで勤務OK、実働５時間～勤務歓迎,"スタッフ割引あり、昇給あり、報奨金制度あり、社員登用制度あり、交通費支給（1,000円／日）、
※車通勤の可否は店舗により異なりますので詳しくはお問い合わせください。
ノルマなし、服装・髪型・ネイル自由（ショップの雰囲気に合っていれば着用ブランドは問いません）",応募フォームまたは希望店舗へお電話にてご応募ください。,"希望店舗または下記までお電話ください。
052-531-9143（本社採用課）",part_time,recruit_detail,publish
イオンモール新小松　「LASUD」,hokuriku,ishikawa,石川県小松市清六町３１５　イオンモール新小松１F　　　　　　　　　　　　　　　　　　　,Fashion advisor,レディスアパレル・アクセサリー・ファッション雑貨の接客販売を中心に、商品整理やディスプレイの変更補助など、店舗業務全般に携わっていただきます。, parttime_work,時給９５０円～,高卒以上、年齢不問、経験不問、長期勤務できる方歓迎、学生・フリーター歓迎、扶養内勤務OK,応相談、シフト自己申告制（1カ月単位）、週３日～勤務OK、平日のみ勤務OK、土日祝のみ勤務OK,9:30～21:00、１５時まで勤務OK、夕方～閉店まで勤務OK、実働５時間～勤務歓迎,"スタッフ割引あり、昇給あり、報奨金制度あり、社員登用制度あり、交通費支給（1,000円／日）、
※車通勤の可否は店舗により異なりますので詳しくはお問い合わせください。
ノルマなし、服装・髪型・ネイル自由（ショップの雰囲気に合っていれば着用ブランドは問いません）",応募フォームまたは希望店舗へお電話にてご応募ください。,"希望店舗または下記までお電話ください。
052-531-9143（本社採用課）",part_time,recruit_detail,publish
アピタ福井大和田　「MAITRESSE・SCOTCLUB」,hokuriku,fukui,福井県福井市大和田２－１２３０　アピタ福井大和田２Ｆ　　　　,Fashion advisor,レディスアパレル・アクセサリー・ファッション雑貨の接客販売を中心に、商品整理やディスプレイの変更補助など、店舗業務全般に携わっていただきます。, parttime_work,時給９５０円～,高卒以上、年齢不問、経験不問、長期勤務できる方歓迎、学生・フリーター歓迎、扶養内勤務OK,応相談、シフト自己申告制（1カ月単位）、週３日～勤務OK、平日のみ勤務OK、土日祝のみ勤務OK,9:30～21:00、１５時まで勤務OK、夕方～閉店まで勤務OK、実働５時間～勤務歓迎,"スタッフ割引あり、昇給あり、報奨金制度あり、社員登用制度あり、交通費支給（1,000円／日）、
※車通勤の可否は店舗により異なりますので詳しくはお問い合わせください。
ノルマなし、服装・髪型・ネイル自由（ショップの雰囲気に合っていれば着用ブランドは問いません）",応募フォームまたは希望店舗へお電話にてご応募ください。,"希望店舗または下記までお電話ください。
052-531-9143（本社採用課）",part_time,recruit_detail,publish
イオンモール大日　「LASUD」,kansai,osaka ,大阪府守口市大日東町１－１８　イオンモール大日２F　　　　　　,Fashion advisor,レディスアパレル・アクセサリー・ファッション雑貨の接客販売を中心に、商品整理やディスプレイの変更補助など、店舗業務全般に携わっていただきます。, parttime_work,時給９７０円～,高卒以上、年齢不問、経験不問、長期勤務できる方歓迎、学生・フリーター歓迎、扶養内勤務OK,応相談、シフト自己申告制（1カ月単位）、週３日～勤務OK、平日のみ勤務OK、土日祝のみ勤務OK,8:30～22:00、１５時まで勤務OK、夕方～閉店まで勤務OK、実働５時間～勤務歓迎,"スタッフ割引あり、昇給あり、報奨金制度あり、社員登用制度あり、交通費支給（1,000円／日）、
※車通勤の可否は店舗により異なりますので詳しくはお問い合わせください。
ノルマなし、服装・髪型・ネイル自由（ショップの雰囲気に合っていれば着用ブランドは問いません）",応募フォームまたは希望店舗へお電話にてご応募ください。,"希望店舗または下記までお電話ください。
052-531-9143（本社採用課）",part_time,recruit_detail,publish
阪神梅田本店　「Aga」,kansai,osaka ,大阪府大阪市北区梅田１－１３－１３　阪神梅田本店４Ｆ,Fashion advisor,レディスアパレル・アクセサリー・ファッション雑貨の接客販売を中心に、商品整理やディスプレイの変更補助など、店舗業務全般に携わっていただきます。, parttime_work,時給９７０円～,高卒以上、年齢不問、経験不問、長期勤務できる方歓迎、学生・フリーター歓迎、扶養内勤務OK,応相談、シフト自己申告制（1カ月単位）、週３日～勤務OK、平日のみ勤務OK、土日祝のみ勤務OK,9:30～20:00、１５時まで勤務OK、夕方～閉店まで勤務OK、実働５時間～勤務歓迎,"スタッフ割引あり、昇給あり、報奨金制度あり、社員登用制度あり、交通費支給（1,000円／日）、
※車通勤の可否は店舗により異なりますので詳しくはお問い合わせください。
ノルマなし、服装・髪型・ネイル自由（ショップの雰囲気に合っていれば着用ブランドは問いません）",応募フォームまたは希望店舗へお電話にてご応募ください。,"希望店舗または下記までお電話ください。
052-531-9143（本社採用課）",part_time,recruit_detail,publish
イオンモールりんくう泉南　「Petit Maison」,kansai,osaka ,大阪府泉南市りんくう南浜３－１　イオンモールりんくう泉南１Ｆ　,Fashion advisor,レディスアパレル・アクセサリー・ファッション雑貨の接客販売を中心に、商品整理やディスプレイの変更補助など、店舗業務全般に携わっていただきます。, parttime_work,時給９７０円～,高卒以上、年齢不問、経験不問、長期勤務できる方歓迎、学生・フリーター歓迎、扶養内勤務OK,応相談、シフト自己申告制（1カ月単位）、週３日～勤務OK、平日のみ勤務OK、土日祝のみ勤務OK,9:30～22:00、１５時まで勤務OK、夕方～閉店まで勤務OK、実働５時間～勤務歓迎,"スタッフ割引あり、昇給あり、報奨金制度あり、社員登用制度あり、交通費支給（1,000円／日）、
※車通勤の可否は店舗により異なりますので詳しくはお問い合わせください。
ノルマなし、服装・髪型・ネイル自由（ショップの雰囲気に合っていれば着用ブランドは問いません）",応募フォームまたは希望店舗へお電話にてご応募ください。,"希望店舗または下記までお電話ください。
052-531-9143（本社採用課）",part_time,recruit_detail,publish
イオンモール草津　「LASUD」「Vin」,kansai,shiga,滋賀県草津市新浜町３００　イオンモール草津１Ｆ　　,Fashion advisor,レディスアパレル・アクセサリー・ファッション雑貨の接客販売を中心に、商品整理やディスプレイの変更補助など、店舗業務全般に携わっていただきます。, parttime_work,時給９５０円～,高卒以上、年齢不問、経験不問、長期勤務できる方歓迎、学生・フリーター歓迎、扶養内勤務OK,応相談、シフト自己申告制（1カ月単位）、週３日～勤務OK、平日のみ勤務OK、土日祝のみ勤務OK,9:30～22:00、１５時まで勤務OK、夕方～閉店まで勤務OK、実働５時間～勤務歓迎,"スタッフ割引あり、昇給あり、報奨金制度あり、社員登用制度あり、交通費支給（1,000円／日）、
※車通勤の可否は店舗により異なりますので詳しくはお問い合わせください。
ノルマなし、服装・髪型・ネイル自由（ショップの雰囲気に合っていれば着用ブランドは問いません）",応募フォームまたは希望店舗へお電話にてご応募ください。,"希望店舗または下記までお電話ください。
052-531-9143（本社採用課）",part_time,recruit_detail,publish
イオンモール伊丹　「LASUD」,kansai,hyogo,兵庫県伊丹市藤ノ木１－１－１　イオンモ－ル伊丹２Ｆ　　　　　,Fashion advisor,レディスアパレル・アクセサリー・ファッション雑貨の接客販売を中心に、商品整理やディスプレイの変更補助など、店舗業務全般に携わっていただきます。, parttime_work,時給９５０円～,高卒以上、年齢不問、経験不問、長期勤務できる方歓迎、学生・フリーター歓迎、扶養内勤務OK,応相談、シフト自己申告制（1カ月単位）、週３日～勤務OK、平日のみ勤務OK、土日祝のみ勤務OK,9:30～22:00、１５時まで勤務OK、夕方～閉店まで勤務OK、実働５時間～勤務歓迎,"スタッフ割引あり、昇給あり、報奨金制度あり、社員登用制度あり、交通費支給（1,000円／日）、
※車通勤の可否は店舗により異なりますので詳しくはお問い合わせください。
ノルマなし、服装・髪型・ネイル自由（ショップの雰囲気に合っていれば着用ブランドは問いません）",応募フォームまたは希望店舗へお電話にてご応募ください。,"希望店舗または下記までお電話ください。
052-531-9143（本社採用課）",part_time,recruit_detail,publish
ミント神戸　「Aga」,kansai,hyogo,兵庫県神戸市中央区雲井通７－１－１　ミント神戸３F　　　　,Fashion advisor,レディスアパレル・アクセサリー・ファッション雑貨の接客販売を中心に、商品整理やディスプレイの変更補助など、店舗業務全般に携わっていただきます。, parttime_work,時給９５０円～,高卒以上、年齢不問、経験不問、長期勤務できる方歓迎、学生・フリーター歓迎、扶養内勤務OK,応相談、シフト自己申告制（1カ月単位）、週３日～勤務OK、平日のみ勤務OK、土日祝のみ勤務OK,10:30～21:00、１５時まで勤務OK、夕方～閉店まで勤務OK、実働５時間～勤務歓迎,"スタッフ割引あり、昇給あり、報奨金制度あり、社員登用制度あり、交通費支給（1,000円／日）、
※車通勤の可否は店舗により異なりますので詳しくはお問い合わせください。
ノルマなし、服装・髪型・ネイル自由（ショップの雰囲気に合っていれば着用ブランドは問いません）",応募フォームまたは希望店舗へお電話にてご応募ください。,"希望店舗または下記までお電話ください。
052-531-9143（本社採用課）",part_time,recruit_detail,publish
西宮ガーデンズ　「Aga」,kansai,hyogo,兵庫県西宮市高松町１４－２　阪急西宮ガーデンズ 2F　　　　　　,Fashion advisor,レディスアパレル・アクセサリー・ファッション雑貨の接客販売を中心に、商品整理やディスプレイの変更補助など、店舗業務全般に携わっていただきます。, parttime_work,時給９５０円～,高卒以上、年齢不問、経験不問、長期勤務できる方歓迎、学生・フリーター歓迎、扶養内勤務OK,応相談、シフト自己申告制（1カ月単位）、週３日～勤務OK、平日のみ勤務OK、土日祝のみ勤務OK,9:30～21:00、１５時まで勤務OK、夕方～閉店まで勤務OK、実働５時間～勤務歓迎,"スタッフ割引あり、昇給あり、報奨金制度あり、社員登用制度あり、交通費支給（1,000円／日）、
※車通勤の可否は店舗により異なりますので詳しくはお問い合わせください。
ノルマなし、服装・髪型・ネイル自由（ショップの雰囲気に合っていれば着用ブランドは問いません）",応募フォームまたは希望店舗へお電話にてご応募ください。,"希望店舗または下記までお電話ください。
052-531-9143（本社採用課）",part_time,recruit_detail,publish
イオンモール姫路リバーシティー　「SCOTCLUB」,kansai,hyogo,兵庫県姫路市飾磨区細江２５６０　イオンモール姫路リバーシティー1F,Fashion advisor,レディスアパレル・アクセサリー・ファッション雑貨の接客販売を中心に、商品整理やディスプレイの変更補助など、店舗業務全般に携わっていただきます。, parttime_work,時給９５０円～,高卒以上、年齢不問、経験不問、長期勤務できる方歓迎、学生・フリーター歓迎、扶養内勤務OK,応相談、シフト自己申告制（1カ月単位）、週３日～勤務OK、平日のみ勤務OK、土日祝のみ勤務OK,9:30～21:00、１５時まで勤務OK、夕方～閉店まで勤務OK、実働５時間～勤務歓迎,"スタッフ割引あり、昇給あり、報奨金制度あり、社員登用制度あり、交通費支給（1,000円／日）、
※車通勤の可否は店舗により異なりますので詳しくはお問い合わせください。
ノルマなし、服装・髪型・ネイル自由（ショップの雰囲気に合っていれば着用ブランドは問いません）",応募フォームまたは希望店舗へお電話にてご応募ください。,"希望店舗または下記までお電話ください。
052-531-9143（本社採用課）",part_time,recruit_detail,publish
イオンモール神戸北　「Petit Maison」,kansai,hyogo,兵庫県神戸市北区上津台８－１－１　イオンモール神戸北１Ｆ　　　　,Fashion advisor,レディスアパレル・アクセサリー・ファッション雑貨の接客販売を中心に、商品整理やディスプレイの変更補助など、店舗業務全般に携わっていただきます。, parttime_work,時給９５０円～,高卒以上、年齢不問、経験不問、長期勤務できる方歓迎、学生・フリーター歓迎、扶養内勤務OK,応相談、シフト自己申告制（1カ月単位）、週３日～勤務OK、平日のみ勤務OK、土日祝のみ勤務OK,8:30～21:00、１５時まで勤務OK、夕方～閉店まで勤務OK、実働５時間～勤務歓迎,"スタッフ割引あり、昇給あり、報奨金制度あり、社員登用制度あり、交通費支給（1,000円／日）、
※車通勤の可否は店舗により異なりますので詳しくはお問い合わせください。
ノルマなし、服装・髪型・ネイル自由（ショップの雰囲気に合っていれば着用ブランドは問いません）",応募フォームまたは希望店舗へお電話にてご応募ください。,"希望店舗または下記までお電話ください。
052-531-9143（本社採用課）",part_time,recruit_detail,publish
イオンモール和歌山　「LASUD」,kansai,wakayama,和歌山県和歌山市中字楠谷５７３　イオンモール和歌山２F　　　　　　　　　　　　　　　　　　,Fashion advisor,レディスアパレル・アクセサリー・ファッション雑貨の接客販売を中心に、商品整理やディスプレイの変更補助など、店舗業務全般に携わっていただきます。, parttime_work,時給９００円～,高卒以上、年齢不問、経験不問、長期勤務できる方歓迎、学生・フリーター歓迎、扶養内勤務OK,応相談、シフト自己申告制（1カ月単位）、週３日～勤務OK、平日のみ勤務OK、土日祝のみ勤務OK,8:30～21:00、１５時まで勤務OK、夕方～閉店まで勤務OK、実働５時間～勤務歓迎,"スタッフ割引あり、昇給あり、報奨金制度あり、社員登用制度あり、交通費支給（1,000円／日）、
※車通勤の可否は店舗により異なりますので詳しくはお問い合わせください。
ノルマなし、服装・髪型・ネイル自由（ショップの雰囲気に合っていれば着用ブランドは問いません）",応募フォームまたは希望店舗へお電話にてご応募ください。,"希望店舗または下記までお電話ください。
052-531-9143（本社採用課）",part_time,recruit_detail,publish
イオンモール橿原　「Vin」,kansai,ara,奈良県橿原市曲川町７－２０－１　イオンモール橿原１Ｆ　　　　,Fashion advisor,レディスアパレル・アクセサリー・ファッション雑貨の接客販売を中心に、商品整理やディスプレイの変更補助など、店舗業務全般に携わっていただきます。, parttime_work,時給９５０円～,高卒以上、年齢不問、経験不問、長期勤務できる方歓迎、学生・フリーター歓迎、扶養内勤務OK,応相談、シフト自己申告制（1カ月単位）、週３日～勤務OK、平日のみ勤務OK、土日祝のみ勤務OK,9:30～22:00、１５時まで勤務OK、夕方～閉店まで勤務OK、実働５時間～勤務歓迎,"スタッフ割引あり、昇給あり、報奨金制度あり、社員登用制度あり、交通費支給（1,000円／日）、
※車通勤の可否は店舗により異なりますので詳しくはお問い合わせください。
ノルマなし、服装・髪型・ネイル自由（ショップの雰囲気に合っていれば着用ブランドは問いません）",応募フォームまたは希望店舗へお電話にてご応募ください。,"希望店舗または下記までお電話ください。
052-531-9143（本社採用課）",part_time,recruit_detail,publish
イオンモール大和郡山　「LASUD」,kansai,ara,奈良県大和郡山市下三橋町７４１　イオンモール大和郡山１Ｆ,Fashion advisor,レディスアパレル・アクセサリー・ファッション雑貨の接客販売を中心に、商品整理やディスプレイの変更補助など、店舗業務全般に携わっていただきます。, parttime_work,時給９５０円～,高卒以上、年齢不問、経験不問、長期勤務できる方歓迎、学生・フリーター歓迎、扶養内勤務OK,応相談、シフト自己申告制（1カ月単位）、週３日～勤務OK、平日のみ勤務OK、土日祝のみ勤務OK,9:30～22:00、１５時まで勤務OK、夕方～閉店まで勤務OK、実働５時間～勤務歓迎,"スタッフ割引あり、昇給あり、報奨金制度あり、社員登用制度あり、交通費支給（1,000円／日）、
※車通勤の可否は店舗により異なりますので詳しくはお問い合わせください。
ノルマなし、服装・髪型・ネイル自由（ショップの雰囲気に合っていれば着用ブランドは問いません）",応募フォームまたは希望店舗へお電話にてご応募ください。,"希望店舗または下記までお電話ください。
052-531-9143（本社採用課）",part_time,recruit_detail,publish
イオンモール広島府中　「MEDOC」,chugoku,hiroshima,広島県安芸郡府中町大須２－１－１　イオンモール広島府中１Ｆ　　　,Fashion advisor,レディスアパレル・アクセサリー・ファッション雑貨の接客販売を中心に、商品整理やディスプレイの変更補助など、店舗業務全般に携わっていただきます。, parttime_work,時給９５０円～,高卒以上、年齢不問、経験不問、長期勤務できる方歓迎、学生・フリーター歓迎、扶養内勤務OK,応相談、シフト自己申告制（1カ月単位）、週３日～勤務OK、平日のみ勤務OK、土日祝のみ勤務OK,9:30～22:00、１５時まで勤務OK、夕方～閉店まで勤務OK、実働５時間～勤務歓迎,"スタッフ割引あり、昇給あり、報奨金制度あり、社員登用制度あり、交通費支給（1,000円／日）、
※車通勤の可否は店舗により異なりますので詳しくはお問い合わせください。
ノルマなし、服装・髪型・ネイル自由（ショップの雰囲気に合っていれば着用ブランドは問いません）",応募フォームまたは希望店舗へお電話にてご応募ください。,"希望店舗または下記までお電話ください。
052-531-9143（本社採用課）",part_time,recruit_detail,publish
ゆめタウン広島　「SCOTCLUB」,chugoku,hiroshima,広島県広島市南区皆実町２－８－１７　ゆめタウン広島1F　　　　　　　,Fashion advisor,レディスアパレル・アクセサリー・ファッション雑貨の接客販売を中心に、商品整理やディスプレイの変更補助など、店舗業務全般に携わっていただきます。, parttime_work,時給９５０円～,高卒以上、年齢不問、経験不問、長期勤務できる方歓迎、学生・フリーター歓迎、扶養内勤務OK,応相談、シフト自己申告制（1カ月単位）、週３日～勤務OK、平日のみ勤務OK、土日祝のみ勤務OK,9:30～21:00、１５時まで勤務OK、夕方～閉店まで勤務OK、実働５時間～勤務歓迎,"スタッフ割引あり、昇給あり、報奨金制度あり、社員登用制度あり、交通費支給（1,000円／日）、
※車通勤の可否は店舗により異なりますので詳しくはお問い合わせください。
ノルマなし、服装・髪型・ネイル自由（ショップの雰囲気に合っていれば着用ブランドは問いません）",応募フォームまたは希望店舗へお電話にてご応募ください。,"希望店舗または下記までお電話ください。
052-531-9143（本社採用課）",part_time,recruit_detail,publish
ゆめタウン廿日市　「LASUD・Vin」,chugoku,hiroshima,広島県廿日市市下平良２－２－１　ゆめタウン廿日市１Ｆ　,Fashion advisor,レディスアパレル・アクセサリー・ファッション雑貨の接客販売を中心に、商品整理やディスプレイの変更補助など、店舗業務全般に携わっていただきます。, parttime_work,時給９５０円～,高卒以上、年齢不問、経験不問、長期勤務できる方歓迎、学生・フリーター歓迎、扶養内勤務OK,応相談、シフト自己申告制（1カ月単位）、週３日～勤務OK、平日のみ勤務OK、土日祝のみ勤務OK,8:30～21:00、１５時まで勤務OK、夕方～閉店まで勤務OK、実働５時間～勤務歓迎,"スタッフ割引あり、昇給あり、報奨金制度あり、社員登用制度あり、交通費支給（1,000円／日）、
※車通勤の可否は店舗により異なりますので詳しくはお問い合わせください。
ノルマなし、服装・髪型・ネイル自由（ショップの雰囲気に合っていれば着用ブランドは問いません）",応募フォームまたは希望店舗へお電話にてご応募ください。,"希望店舗または下記までお電話ください。
052-531-9143（本社採用課）",part_time,recruit_detail,publish
LECT　「Sud et Nord」,chugoku,hiroshima,広島県広島市西区扇２－１－４５　　ＬＥＣＴ2F　　　　　　　　,Fashion advisor,レディスアパレル・アクセサリー・ファッション雑貨の接客販売を中心に、商品整理やディスプレイの変更補助など、店舗業務全般に携わっていただきます。, parttime_work,時給９５０円～,高卒以上、年齢不問、経験不問、長期勤務できる方歓迎、学生・フリーター歓迎、扶養内勤務OK,応相談、シフト自己申告制（1カ月単位）、週３日～勤務OK、平日のみ勤務OK、土日祝のみ勤務OK,9:30～21:00、１５時まで勤務OK、夕方～閉店まで勤務OK、実働５時間～勤務歓迎,"スタッフ割引あり、昇給あり、報奨金制度あり、社員登用制度あり、交通費支給（1,000円／日）、
※車通勤の可否は店舗により異なりますので詳しくはお問い合わせください。
ノルマなし、服装・髪型・ネイル自由（ショップの雰囲気に合っていれば着用ブランドは問いません）",応募フォームまたは希望店舗へお電話にてご応募ください。,"希望店舗または下記までお電話ください。
052-531-9143（本社採用課）",part_time,recruit_detail,publish
天満屋 福山ポートプラザ　「Vin」,chugoku,hiroshima,広島県福山市入船町３－１－２５　天満屋ハピータウンポートプラザ１Ｆ　　　　　　　,Fashion advisor,レディスアパレル・アクセサリー・ファッション雑貨の接客販売を中心に、商品整理やディスプレイの変更補助など、店舗業務全般に携わっていただきます。, parttime_work,時給９５０円～,高卒以上、年齢不問、経験不問、長期勤務できる方歓迎、学生・フリーター歓迎、扶養内勤務OK,応相談、シフト自己申告制（1カ月単位）、週３日～勤務OK、平日のみ勤務OK、土日祝のみ勤務OK,9:30～21:00、１５時まで勤務OK、夕方～閉店まで勤務OK、実働５時間～勤務歓迎,"スタッフ割引あり、昇給あり、報奨金制度あり、社員登用制度あり、交通費支給（1,000円／日）、
※車通勤の可否は店舗により異なりますので詳しくはお問い合わせください。
ノルマなし、服装・髪型・ネイル自由（ショップの雰囲気に合っていれば着用ブランドは問いません）",応募フォームまたは希望店舗へお電話にてご応募ください。,"希望店舗または下記までお電話ください。
052-531-9143（本社採用課）",part_time,recruit_detail,publish
イオンモール倉敷　「LASUD」,chugoku,okayama,岡山県倉敷市水江１　イオンモール倉敷１F　　　　,Fashion advisor,レディスアパレル・アクセサリー・ファッション雑貨の接客販売を中心に、商品整理やディスプレイの変更補助など、店舗業務全般に携わっていただきます。, parttime_work,時給９５０円～,高卒以上、年齢不問、経験不問、長期勤務できる方歓迎、学生・フリーター歓迎、扶養内勤務OK,応相談、シフト自己申告制（1カ月単位）、週３日～勤務OK、平日のみ勤務OK、土日祝のみ勤務OK,9:30～22:00、１５時まで勤務OK、夕方～閉店まで勤務OK、実働５時間～勤務歓迎,"スタッフ割引あり、昇給あり、報奨金制度あり、社員登用制度あり、交通費支給（1,000円／日）、
※車通勤の可否は店舗により異なりますので詳しくはお問い合わせください。
ノルマなし、服装・髪型・ネイル自由（ショップの雰囲気に合っていれば着用ブランドは問いません）",応募フォームまたは希望店舗へお電話にてご応募ください。,"希望店舗または下記までお電話ください。
052-531-9143（本社採用課）",part_time,recruit_detail,publish
イオンモール岡山　「CLOVE」,chugoku,okayama,岡山県岡山市北区下石井１－２－１　イオンモール岡山２Ｆ　　　　　,Fashion advisor,レディスアパレル・アクセサリー・ファッション雑貨の接客販売を中心に、商品整理やディスプレイの変更補助など、店舗業務全般に携わっていただきます。, parttime_work,時給９５０円～,高卒以上、年齢不問、経験不問、長期勤務できる方歓迎、学生・フリーター歓迎、扶養内勤務OK,応相談、シフト自己申告制（1カ月単位）、週３日～勤務OK、平日のみ勤務OK、土日祝のみ勤務OK,9:30～21:00、１５時まで勤務OK、夕方～閉店まで勤務OK、実働５時間～勤務歓迎,"スタッフ割引あり、昇給あり、報奨金制度あり、社員登用制度あり、交通費支給（1,000円／日）、
※車通勤の可否は店舗により異なりますので詳しくはお問い合わせください。
ノルマなし、服装・髪型・ネイル自由（ショップの雰囲気に合っていれば着用ブランドは問いません）",応募フォームまたは希望店舗へお電話にてご応募ください。,"希望店舗または下記までお電話ください。
052-531-9143（本社採用課）",part_time,recruit_detail,publish
ゆめタウン高松　「MAITRESSE・SCOTCLUB」,shikoku,kagawa ,香川県高松市三条町字中所６０８－１　ゆめタウン高松２Ｆ　　　　　　,Fashion advisor,レディスアパレル・アクセサリー・ファッション雑貨の接客販売を中心に、商品整理やディスプレイの変更補助など、店舗業務全般に携わっていただきます。, parttime_work,時給９００円～,高卒以上、年齢不問、経験不問、長期勤務できる方歓迎、学生・フリーター歓迎、扶養内勤務OK,応相談、シフト自己申告制（1カ月単位）、週３日～勤務OK、平日のみ勤務OK、土日祝のみ勤務OK,9:30～22:00、１５時まで勤務OK、夕方～閉店まで勤務OK、実働５時間～勤務歓迎,"スタッフ割引あり、昇給あり、報奨金制度あり、社員登用制度あり、交通費支給（1,000円／日）、
※車通勤の可否は店舗により異なりますので詳しくはお問い合わせください。
ノルマなし、服装・髪型・ネイル自由（ショップの雰囲気に合っていれば着用ブランドは問いません）",応募フォームまたは希望店舗へお電話にてご応募ください。,"希望店舗または下記までお電話ください。
052-531-9143（本社採用課）",part_time,recruit_detail,publish
イオンモール高松　「LASUD」,shikoku,kagawa ,香川県高松市香西本町１－１　イオンモール高松１Ｆ　　　　　,Fashion advisor,レディスアパレル・アクセサリー・ファッション雑貨の接客販売を中心に、商品整理やディスプレイの変更補助など、店舗業務全般に携わっていただきます。, parttime_work,時給９００円～,高卒以上、年齢不問、経験不問、長期勤務できる方歓迎、学生・フリーター歓迎、扶養内勤務OK,応相談、シフト自己申告制（1カ月単位）、週３日～勤務OK、平日のみ勤務OK、土日祝のみ勤務OK,9:30～21:00、１５時まで勤務OK、夕方～閉店まで勤務OK、実働５時間～勤務歓迎,"スタッフ割引あり、昇給あり、報奨金制度あり、社員登用制度あり、交通費支給（1,000円／日）、
※車通勤の可否は店舗により異なりますので詳しくはお問い合わせください。
ノルマなし、服装・髪型・ネイル自由（ショップの雰囲気に合っていれば着用ブランドは問いません）",応募フォームまたは希望店舗へお電話にてご応募ください。,"希望店舗または下記までお電話ください。
052-531-9143（本社採用課）",part_time,recruit_detail,publish
イオンモール綾川　「Petit Maison」,shikoku,kagawa ,香川県綾歌郡綾川町萱原字下所８８２－１　イオンモール綾川１F　　　　　　　,Fashion advisor,レディスアパレル・アクセサリー・ファッション雑貨の接客販売を中心に、商品整理やディスプレイの変更補助など、店舗業務全般に携わっていただきます。, parttime_work,時給９００円～,高卒以上、年齢不問、経験不問、長期勤務できる方歓迎、学生・フリーター歓迎、扶養内勤務OK,応相談、シフト自己申告制（1カ月単位）、週３日～勤務OK、平日のみ勤務OK、土日祝のみ勤務OK,9:30～21:00、１５時まで勤務OK、夕方～閉店まで勤務OK、実働５時間～勤務歓迎,"スタッフ割引あり、昇給あり、報奨金制度あり、社員登用制度あり、交通費支給（1,000円／日）、
※車通勤の可否は店舗により異なりますので詳しくはお問い合わせください。
ノルマなし、服装・髪型・ネイル自由（ショップの雰囲気に合っていれば着用ブランドは問いません）",応募フォームまたは希望店舗へお電話にてご応募ください。,"希望店舗または下記までお電話ください。
052-531-9143（本社採用課）",part_time,recruit_detail,publish
イオンモール高知　「MAITRESSE・SCOTCLUB」,shikoku,kochi,高知県高知市秦南町１丁目４－８　イオンモール高知１Ｆ　　　　　　　　　　　　　　　　　,Fashion advisor,レディスアパレル・アクセサリー・ファッション雑貨の接客販売を中心に、商品整理やディスプレイの変更補助など、店舗業務全般に携わっていただきます。, parttime_work,時給９００円～,高卒以上、年齢不問、経験不問、長期勤務できる方歓迎、学生・フリーター歓迎、扶養内勤務OK,応相談、シフト自己申告制（1カ月単位）、週３日～勤務OK、平日のみ勤務OK、土日祝のみ勤務OK,9:30～22:00、１５時まで勤務OK、夕方～閉店まで勤務OK、実働５時間～勤務歓迎,"スタッフ割引あり、昇給あり、報奨金制度あり、社員登用制度あり、交通費支給（1,000円／日）、
※車通勤の可否は店舗により異なりますので詳しくはお問い合わせください。
ノルマなし、服装・髪型・ネイル自由（ショップの雰囲気に合っていれば着用ブランドは問いません）",応募フォームまたは希望店舗へお電話にてご応募ください。,"希望店舗または下記までお電話ください。
052-531-9143（本社採用課）",part_time,recruit_detail,publish
ゆめタウン徳島　「LASUD・Petit Maison・Pechinchar」,shikoku,tokushima ,徳島県板野郡藍住町奥野東中須８８－１　ゆめタウン徳島１Ｆ　　,Fashion advisor,レディスアパレル・アクセサリー・ファッション雑貨の接客販売を中心に、商品整理やディスプレイの変更補助など、店舗業務全般に携わっていただきます。, parttime_work,時給９５０円～,高卒以上、年齢不問、経験不問、長期勤務できる方歓迎、学生・フリーター歓迎、扶養内勤務OK,応相談、シフト自己申告制（1カ月単位）、週３日～勤務OK、平日のみ勤務OK、土日祝のみ勤務OK,9:30～22:00、１５時まで勤務OK、夕方～閉店まで勤務OK、実働５時間～勤務歓迎,"スタッフ割引あり、昇給あり、報奨金制度あり、社員登用制度あり、交通費支給（1,000円／日）、
※車通勤の可否は店舗により異なりますので詳しくはお問い合わせください。
ノルマなし、服装・髪型・ネイル自由（ショップの雰囲気に合っていれば着用ブランドは問いません）",応募フォームまたは希望店舗へお電話にてご応募ください。,"希望店舗または下記までお電話ください。
052-531-9143（本社採用課）",part_time,recruit_detail,publish
イオンモール徳島　「Vin」,shikoku,tokushima ,徳島県徳島市南末広町４－１　イオンモール徳島１F　　,Fashion advisor,レディスアパレル・アクセサリー・ファッション雑貨の接客販売を中心に、商品整理やディスプレイの変更補助など、店舗業務全般に携わっていただきます。, parttime_work,時給９５０円～,高卒以上、年齢不問、経験不問、長期勤務できる方歓迎、学生・フリーター歓迎、扶養内勤務OK,応相談、シフト自己申告制（1カ月単位）、週３日～勤務OK、平日のみ勤務OK、土日祝のみ勤務OK,9:30～21:00、１５時まで勤務OK、夕方～閉店まで勤務OK、実働５時間～勤務歓迎,"スタッフ割引あり、昇給あり、報奨金制度あり、社員登用制度あり、交通費支給（1,000円／日）、
※車通勤の可否は店舗により異なりますので詳しくはお問い合わせください。
ノルマなし、服装・髪型・ネイル自由（ショップの雰囲気に合っていれば着用ブランドは問いません）",応募フォームまたは希望店舗へお電話にてご応募ください。,"希望店舗または下記までお電話ください。
052-531-9143（本社採用課）",part_time,recruit_detail,publish
イオンモール新居浜　「SCOTCLUB」,shikoku,atago,愛媛県新居浜市前田町８－８　イオンモール新居浜１Ｆ　　　　,Fashion advisor,レディスアパレル・アクセサリー・ファッション雑貨の接客販売を中心に、商品整理やディスプレイの変更補助など、店舗業務全般に携わっていただきます。, parttime_work,時給９００円～,高卒以上、年齢不問、経験不問、長期勤務できる方歓迎、学生・フリーター歓迎、扶養内勤務OK,応相談、シフト自己申告制（1カ月単位）、週３日～勤務OK、平日のみ勤務OK、土日祝のみ勤務OK,9:30～21:00、１５時まで勤務OK、夕方～閉店まで勤務OK、実働５時間～勤務歓迎,"スタッフ割引あり、昇給あり、報奨金制度あり、社員登用制度あり、交通費支給（1,000円／日）、
※車通勤の可否は店舗により異なりますので詳しくはお問い合わせください。
ノルマなし、服装・髪型・ネイル自由（ショップの雰囲気に合っていれば着用ブランドは問いません）",応募フォームまたは希望店舗へお電話にてご応募ください。,"希望店舗または下記までお電話ください。
052-531-9143（本社採用課）",part_time,recruit_detail,publish
エミフルMASAKI　「LASUD」「Vin」,shikoku,atago,愛媛県伊予郡松前町大字筒井８５０　エミフル松前１Ｆ　　　　　　　,Fashion advisor,レディスアパレル・アクセサリー・ファッション雑貨の接客販売を中心に、商品整理やディスプレイの変更補助など、店舗業務全般に携わっていただきます。, parttime_work,時給９００円～,高卒以上、年齢不問、経験不問、長期勤務できる方歓迎、学生・フリーター歓迎、扶養内勤務OK,応相談、シフト自己申告制（1カ月単位）、週３日～勤務OK、平日のみ勤務OK、土日祝のみ勤務OK,8:30～21:00、１５時まで勤務OK、夕方～閉店まで勤務OK、実働５時間～勤務歓迎,"スタッフ割引あり、昇給あり、報奨金制度あり、社員登用制度あり、交通費支給（1,000円／日）、
※車通勤の可否は店舗により異なりますので詳しくはお問い合わせください。
ノルマなし、服装・髪型・ネイル自由（ショップの雰囲気に合っていれば着用ブランドは問いません）",応募フォームまたは希望店舗へお電話にてご応募ください。,"希望店舗または下記までお電話ください。
052-531-9143（本社採用課）",part_time,recruit_detail,publish
ゆめタウン博多　「SCOTCLUB」,kyushu_area,fukuoka ,福岡県福岡市東区東浜１－１－１　ゆめタウン博多１Ｆ　　　　　　,Fashion advisor,レディスアパレル・アクセサリー・ファッション雑貨の接客販売を中心に、商品整理やディスプレイの変更補助など、店舗業務全般に携わっていただきます。, parttime_work,時給９５０円～,高卒以上、年齢不問、経験不問、長期勤務できる方歓迎、学生・フリーター歓迎、扶養内勤務OK,応相談、シフト自己申告制（1カ月単位）、週３日～勤務OK、平日のみ勤務OK、土日祝のみ勤務OK,9:30～21:00、１５時まで勤務OK、夕方～閉店まで勤務OK、実働５時間～勤務歓迎,"スタッフ割引あり、昇給あり、報奨金制度あり、社員登用制度あり、交通費支給（1,000円／日）、
※車通勤の可否は店舗により異なりますので詳しくはお問い合わせください。
ノルマなし、服装・髪型・ネイル自由（ショップの雰囲気に合っていれば着用ブランドは問いません）",応募フォームまたは希望店舗へお電話にてご応募ください。,"希望店舗または下記までお電話ください。
052-531-9143（本社採用課）",part_time,recruit_detail,publish
イオンモール福岡　「LASUD」,kyushu_area,fukuoka ,福岡県糟屋郡粕屋町大字酒殿字老ノ木１９２－１　イオンモール福岡１Ｆ　　　　　,Fashion advisor,レディスアパレル・アクセサリー・ファッション雑貨の接客販売を中心に、商品整理やディスプレイの変更補助など、店舗業務全般に携わっていただきます。, parttime_work,時給９５０円～,高卒以上、年齢不問、経験不問、長期勤務できる方歓迎、学生・フリーター歓迎、扶養内勤務OK,応相談、シフト自己申告制（1カ月単位）、週３日～勤務OK、平日のみ勤務OK、土日祝のみ勤務OK,8:30～21:00、１５時まで勤務OK、夕方～閉店まで勤務OK、実働５時間～勤務歓迎,"スタッフ割引あり、昇給あり、報奨金制度あり、社員登用制度あり、交通費支給（1,000円／日）、
※車通勤の可否は店舗により異なりますので詳しくはお問い合わせください。
ノルマなし、服装・髪型・ネイル自由（ショップの雰囲気に合っていれば着用ブランドは問いません）",応募フォームまたは希望店舗へお電話にてご応募ください。,"希望店舗または下記までお電話ください。
052-531-9143（本社採用課）",part_time,recruit_detail,publish
イオンモール筑紫野　「LASUD」,kyushu_area,fukuoka ,福岡県筑紫野市立明寺４３４－１　イオンモール筑紫野１F,Fashion advisor,レディスアパレル・アクセサリー・ファッション雑貨の接客販売を中心に、商品整理やディスプレイの変更補助など、店舗業務全般に携わっていただきます。, parttime_work,時給９５０円～,高卒以上、年齢不問、経験不問、長期勤務できる方歓迎、学生・フリーター歓迎、扶養内勤務OK,応相談、シフト自己申告制（1カ月単位）、週３日～勤務OK、平日のみ勤務OK、土日祝のみ勤務OK,9:30～21:00、１５時まで勤務OK、夕方～閉店まで勤務OK、実働５時間～勤務歓迎,"スタッフ割引あり、昇給あり、報奨金制度あり、社員登用制度あり、交通費支給（1,000円／日）、
※車通勤の可否は店舗により異なりますので詳しくはお問い合わせください。
ノルマなし、服装・髪型・ネイル自由（ショップの雰囲気に合っていれば着用ブランドは問いません）",応募フォームまたは希望店舗へお電話にてご応募ください。,"希望店舗または下記までお電話ください。
052-531-9143（本社採用課）",part_time,recruit_detail,publish
アミュプラザ小倉　「RADIATE」,kyushu_area,fukuoka ,福岡県北九州市小倉北区浅野１－１－１　アミュプラザ小倉東館３Ｆ　　　,Fashion advisor,レディスアパレル・アクセサリー・ファッション雑貨の接客販売を中心に、商品整理やディスプレイの変更補助など、店舗業務全般に携わっていただきます。, parttime_work,時給９５０円～,高卒以上、年齢不問、経験不問、長期勤務できる方歓迎、学生・フリーター歓迎、扶養内勤務OK,応相談、シフト自己申告制（1カ月単位）、週３日～勤務OK、平日のみ勤務OK、土日祝のみ勤務OK,9:30～21:00、１５時まで勤務OK、夕方～閉店まで勤務OK、実働５時間～勤務歓迎,"スタッフ割引あり、昇給あり、報奨金制度あり、社員登用制度あり、交通費支給（1,000円／日）、
※車通勤の可否は店舗により異なりますので詳しくはお問い合わせください。
ノルマなし、服装・髪型・ネイル自由（ショップの雰囲気に合っていれば着用ブランドは問いません）",応募フォームまたは希望店舗へお電話にてご応募ください。,"希望店舗または下記までお電話ください。
052-531-9143（本社採用課）",part_time,recruit_detail,publish
ゆめタウン久留米　「MEDOC」,kyushu_area,fukuoka ,福岡県久留米市新合川１－２－１　ゆめタウン久留米１Ｆ　　　　　,Fashion advisor,レディスアパレル・アクセサリー・ファッション雑貨の接客販売を中心に、商品整理やディスプレイの変更補助など、店舗業務全般に携わっていただきます。, parttime_work,時給９５０円～,高卒以上、年齢不問、経験不問、長期勤務できる方歓迎、学生・フリーター歓迎、扶養内勤務OK,応相談、シフト自己申告制（1カ月単位）、週３日～勤務OK、平日のみ勤務OK、土日祝のみ勤務OK,9:30～22:00、１５時まで勤務OK、夕方～閉店まで勤務OK、実働５時間～勤務歓迎,"スタッフ割引あり、昇給あり、報奨金制度あり、社員登用制度あり、交通費支給（1,000円／日）、
※車通勤の可否は店舗により異なりますので詳しくはお問い合わせください。
ノルマなし、服装・髪型・ネイル自由（ショップの雰囲気に合っていれば着用ブランドは問いません）",応募フォームまたは希望店舗へお電話にてご応募ください。,"希望店舗または下記までお電話ください。
052-531-9143（本社採用課）",part_time,recruit_detail,publish
イオンモール直方　「LASUD」,kyushu_area,fukuoka ,福岡県直方市大字感田字湯ノ原２－１－１　イオンモール直方１F　　　　　,Fashion advisor,レディスアパレル・アクセサリー・ファッション雑貨の接客販売を中心に、商品整理やディスプレイの変更補助など、店舗業務全般に携わっていただきます。, parttime_work,時給９５０円～,高卒以上、年齢不問、経験不問、長期勤務できる方歓迎、学生・フリーター歓迎、扶養内勤務OK,応相談、シフト自己申告制（1カ月単位）、週３日～勤務OK、平日のみ勤務OK、土日祝のみ勤務OK,9:30～21:00、１５時まで勤務OK、夕方～閉店まで勤務OK、実働５時間～勤務歓迎,"スタッフ割引あり、昇給あり、報奨金制度あり、社員登用制度あり、交通費支給（1,000円／日）、
※車通勤の可否は店舗により異なりますので詳しくはお問い合わせください。
ノルマなし、服装・髪型・ネイル自由（ショップの雰囲気に合っていれば着用ブランドは問いません）",応募フォームまたは希望店舗へお電話にてご応募ください。,"希望店舗または下記までお電話ください。
052-531-9143（本社採用課）",part_time,recruit_detail,publish
ゆめタウン佐賀　「MEDOC」,kyushu_area,saga ,佐賀市兵庫北５－１４－１号ゆめタウン佐賀１Ｆ　　　　　　,Fashion advisor,レディスアパレル・アクセサリー・ファッション雑貨の接客販売を中心に、商品整理やディスプレイの変更補助など、店舗業務全般に携わっていただきます。, parttime_work,時給９００円～,高卒以上、年齢不問、経験不問、長期勤務できる方歓迎、学生・フリーター歓迎、扶養内勤務OK,応相談、シフト自己申告制（1カ月単位）、週３日～勤務OK、平日のみ勤務OK、土日祝のみ勤務OK,9:30～22:00、１５時まで勤務OK、夕方～閉店まで勤務OK、実働５時間～勤務歓迎,"スタッフ割引あり、昇給あり、報奨金制度あり、社員登用制度あり、交通費支給（1,000円／日）、
※車通勤の可否は店舗により異なりますので詳しくはお問い合わせください。
ノルマなし、服装・髪型・ネイル自由（ショップの雰囲気に合っていれば着用ブランドは問いません）",応募フォームまたは希望店舗へお電話にてご応募ください。,"希望店舗または下記までお電話ください。
052-531-9143（本社採用課）",part_time,recruit_detail,publish
ゆめタウン夢彩都　「LASUD」,kyushu_area,nagasaki,長崎県長崎市元船町１０－１　ゆめタウン夢彩都１F　　　　　　　　　　　,Fashion advisor,レディスアパレル・アクセサリー・ファッション雑貨の接客販売を中心に、商品整理やディスプレイの変更補助など、店舗業務全般に携わっていただきます。, parttime_work,時給９００円～,高卒以上、年齢不問、経験不問、長期勤務できる方歓迎、学生・フリーター歓迎、扶養内勤務OK,応相談、シフト自己申告制（1カ月単位）、週３日～勤務OK、平日のみ勤務OK、土日祝のみ勤務OK,9:30～21:00、１５時まで勤務OK、夕方～閉店まで勤務OK、実働５時間～勤務歓迎,"スタッフ割引あり、昇給あり、報奨金制度あり、社員登用制度あり、交通費支給（1,000円／日）、
※車通勤の可否は店舗により異なりますので詳しくはお問い合わせください。
ノルマなし、服装・髪型・ネイル自由（ショップの雰囲気に合っていれば着用ブランドは問いません）",応募フォームまたは希望店舗へお電話にてご応募ください。,"希望店舗または下記までお電話ください。
052-531-9143（本社採用課）",part_time,recruit_detail,publish
ゆめタウン光の森　「LASUD・SCOTCLUB」「CLOVE」,kyushu_area,kumamoto,熊本県菊池郡菊陽町光の森７－３３－１　ゆめタウン光の森１Ｆ　　　　　,Fashion advisor,レディスアパレル・アクセサリー・ファッション雑貨の接客販売を中心に、商品整理やディスプレイの変更補助など、店舗業務全般に携わっていただきます。, parttime_work,時給９５０円～,高卒以上、年齢不問、経験不問、長期勤務できる方歓迎、学生・フリーター歓迎、扶養内勤務OK,応相談、シフト自己申告制（1カ月単位）、週３日～勤務OK、平日のみ勤務OK、土日祝のみ勤務OK,9:30～22:00、１５時まで勤務OK、夕方～閉店まで勤務OK、実働５時間～勤務歓迎,"スタッフ割引あり、昇給あり、報奨金制度あり、社員登用制度あり、交通費支給（1,000円／日）、
※車通勤の可否は店舗により異なりますので詳しくはお問い合わせください。
ノルマなし、服装・髪型・ネイル自由（ショップの雰囲気に合っていれば着用ブランドは問いません）",応募フォームまたは希望店舗へお電話にてご応募ください。,"希望店舗または下記までお電話ください。
052-531-9143（本社採用課）",part_time,recruit_detail,publish
イオンモール熊本　「LASUD」,kyushu_area,kumamoto,熊本県上益城郡嘉島町大字上島字長池２２３２　イオンモール熊本１Ｆ　　　　　,Fashion advisor,レディスアパレル・アクセサリー・ファッション雑貨の接客販売を中心に、商品整理やディスプレイの変更補助など、店舗業務全般に携わっていただきます。, parttime_work,時給９５０円～,高卒以上、年齢不問、経験不問、長期勤務できる方歓迎、学生・フリーター歓迎、扶養内勤務OK,応相談、シフト自己申告制（1カ月単位）、週３日～勤務OK、平日のみ勤務OK、土日祝のみ勤務OK,9:30～21:00、１５時まで勤務OK、夕方～閉店まで勤務OK、実働５時間～勤務歓迎,"スタッフ割引あり、昇給あり、報奨金制度あり、社員登用制度あり、交通費支給（1,000円／日）、
※車通勤の可否は店舗により異なりますので詳しくはお問い合わせください。
ノルマなし、服装・髪型・ネイル自由（ショップの雰囲気に合っていれば着用ブランドは問いません）",応募フォームまたは希望店舗へお電話にてご応募ください。,"希望店舗または下記までお電話ください。
052-531-9143（本社採用課）",part_time,recruit_detail,publish
ゆめタウンはません　「MAITRESSE・SCOTCLUB」,kyushu_area,kumamoto,熊本県熊本市南区田井島１－２－１　ゆめタウンはません１Ｆ　　　　,Fashion advisor,レディスアパレル・アクセサリー・ファッション雑貨の接客販売を中心に、商品整理やディスプレイの変更補助など、店舗業務全般に携わっていただきます。, parttime_work,時給９５０円～,高卒以上、年齢不問、経験不問、長期勤務できる方歓迎、学生・フリーター歓迎、扶養内勤務OK,応相談、シフト自己申告制（1カ月単位）、週３日～勤務OK、平日のみ勤務OK、土日祝のみ勤務OK,9:00～21:30、１５時まで勤務OK、夕方～閉店まで勤務OK、実働５時間～勤務歓迎,"スタッフ割引あり、昇給あり、報奨金制度あり、社員登用制度あり、交通費支給（1,000円／日）、
※車通勤の可否は店舗により異なりますので詳しくはお問い合わせください。
ノルマなし、服装・髪型・ネイル自由（ショップの雰囲気に合っていれば着用ブランドは問いません）",応募フォームまたは希望店舗へお電話にてご応募ください。,"希望店舗または下記までお電話ください。
052-531-9143（本社採用課）",part_time,recruit_detail,publish
パークプレイス大分　「SCOTCLUB」,kyushu_area,oita ,大分県大分市公園通り２－１　パークプレイス大分１Ｆ　,Fashion advisor,レディスアパレル・アクセサリー・ファッション雑貨の接客販売を中心に、商品整理やディスプレイの変更補助など、店舗業務全般に携わっていただきます。, parttime_work,時給９００円～,高卒以上、年齢不問、経験不問、長期勤務できる方歓迎、学生・フリーター歓迎、扶養内勤務OK,応相談、シフト自己申告制（1カ月単位）、週３日～勤務OK、平日のみ勤務OK、土日祝のみ勤務OK,9:30～21:00、１５時まで勤務OK、夕方～閉店まで勤務OK、実働５時間～勤務歓迎,"スタッフ割引あり、昇給あり、報奨金制度あり、社員登用制度あり、交通費支給（1,000円／日）、
※車通勤の可否は店舗により異なりますので詳しくはお問い合わせください。
ノルマなし、服装・髪型・ネイル自由（ショップの雰囲気に合っていれば着用ブランドは問いません）",応募フォームまたは希望店舗へお電話にてご応募ください。,"希望店舗または下記までお電話ください。
052-531-9143（本社採用課）",part_time,recruit_detail,publish
アミュプラザおおいた　「Radiate」　,kyushu_area,oita ,大分市要町１－１４　アミュプラザ大分１Ｆ　　　　　　　　　　　　　　　　,Fashion advisor,レディスアパレル・アクセサリー・ファッション雑貨の接客販売を中心に、商品整理やディスプレイの変更補助など、店舗業務全般に携わっていただきます。, parttime_work,時給９００円～,高卒以上、年齢不問、経験不問、長期勤務できる方歓迎、学生・フリーター歓迎、扶養内勤務OK,応相談、シフト自己申告制（1カ月単位）、週３日～勤務OK、平日のみ勤務OK、土日祝のみ勤務OK,9:30～21:00、１５時まで勤務OK、夕方～閉店まで勤務OK、実働５時間～勤務歓迎,"スタッフ割引あり、昇給あり、報奨金制度あり、社員登用制度あり、交通費支給（1,000円／日）、
※車通勤の可否は店舗により異なりますので詳しくはお問い合わせください。
ノルマなし、服装・髪型・ネイル自由（ショップの雰囲気に合っていれば着用ブランドは問いません）",応募フォームまたは希望店舗へお電話にてご応募ください。,"希望店舗または下記までお電話ください。
052-531-9143（本社採用課）",part_time,recruit_detail,publish
イオンモール宮崎　「LASUD」・「Vin」,kyushu_area,miyazaki,宮崎県宮崎市新別府町江口８６２－１　イオンモール宮崎　　　　　,Fashion advisor,レディスアパレル・アクセサリー・ファッション雑貨の接客販売を中心に、商品整理やディスプレイの変更補助など、店舗業務全般に携わっていただきます。, parttime_work,時給９００円～,高卒以上、年齢不問、経験不問、長期勤務できる方歓迎、学生・フリーター歓迎、扶養内勤務OK,応相談、シフト自己申告制（1カ月単位）、週３日～勤務OK、平日のみ勤務OK、土日祝のみ勤務OK,9:30～21:00、１５時まで勤務OK、夕方～閉店まで勤務OK、実働５時間～勤務歓迎,"スタッフ割引あり、昇給あり、報奨金制度あり、社員登用制度あり、交通費支給（1,000円／日）、
※車通勤の可否は店舗により異なりますので詳しくはお問い合わせください。
ノルマなし、服装・髪型・ネイル自由（ショップの雰囲気に合っていれば着用ブランドは問いません）",応募フォームまたは希望店舗へお電話にてご応募ください。,"希望店舗または下記までお電話ください。
052-531-9143（本社採用課）",part_time,recruit_detail,publish
松屋ビル　「CAREN」,kyushu_area,kagoshima,鹿児島県鹿児島市中町２－６　松屋ビル１Ｆ　　　　　　　　　,Fashion advisor,レディスアパレル・アクセサリー・ファッション雑貨の接客販売を中心に、商品整理やディスプレイの変更補助など、店舗業務全般に携わっていただきます。, parttime_work,時給９００円～,高卒以上、年齢不問、経験不問、長期勤務できる方歓迎、学生・フリーター歓迎、扶養内勤務OK,応相談、シフト自己申告制（1カ月単位）、週３日～勤務OK、平日のみ勤務OK、土日祝のみ勤務OK,10:30～20:00、１５時まで勤務OK、夕方～閉店まで勤務OK、実働５時間～勤務歓迎,"スタッフ割引あり、昇給あり、報奨金制度あり、社員登用制度あり、交通費支給（1,000円／日）、
※車通勤の可否は店舗により異なりますので詳しくはお問い合わせください。
ノルマなし、服装・髪型・ネイル自由（ショップの雰囲気に合っていれば着用ブランドは問いません）",応募フォームまたは希望店舗へお電話にてご応募ください。,"希望店舗または下記までお電話ください。
052-531-9143（本社採用課）",part_time,recruit_detail,publish
アミュプラザ鹿児島　「RADIATE」・「Bouchon」,kyushu_area,kagoshima,鹿児島県鹿児島市中央町１－１　アミュプラザ鹿児島　　　,Fashion advisor,レディスアパレル・アクセサリー・ファッション雑貨の接客販売を中心に、商品整理やディスプレイの変更補助など、店舗業務全般に携わっていただきます。, parttime_work,時給９００円～,高卒以上、年齢不問、経験不問、長期勤務できる方歓迎、学生・フリーター歓迎、扶養内勤務OK,応相談、シフト自己申告制（1カ月単位）、週３日～勤務OK、平日のみ勤務OK、土日祝のみ勤務OK,9:30～20:30、１５時まで勤務OK、夕方～閉店まで勤務OK、実働５時間～勤務歓迎,"スタッフ割引あり、昇給あり、報奨金制度あり、社員登用制度あり、交通費支給（1,000円／日）、
※車通勤の可否は店舗により異なりますので詳しくはお問い合わせください。
ノルマなし、服装・髪型・ネイル自由（ショップの雰囲気に合っていれば着用ブランドは問いません）",応募フォームまたは希望店舗へお電話にてご応募ください。,"希望店舗または下記までお電話ください。
052-531-9143（本社採用課）",part_time,recruit_detail,publish
イオンモール鹿児島　「Vin」,kyushu_area,kagoshima,鹿児島県鹿児島市東開町７　イオンモール鹿児島１Ｆ　　　　,Fashion advisor,レディスアパレル・アクセサリー・ファッション雑貨の接客販売を中心に、商品整理やディスプレイの変更補助など、店舗業務全般に携わっていただきます。, parttime_work,時給９００円～,高卒以上、年齢不問、経験不問、長期勤務できる方歓迎、学生・フリーター歓迎、扶養内勤務OK,応相談、シフト自己申告制（1カ月単位）、週３日～勤務OK、平日のみ勤務OK、土日祝のみ勤務OK,9:30～21:00、１５時まで勤務OK、夕方～閉店まで勤務OK、実働５時間～勤務歓迎,"スタッフ割引あり、昇給あり、報奨金制度あり、社員登用制度あり、交通費支給（1,000円／日）、
※車通勤の可否は店舗により異なりますので詳しくはお問い合わせください。
ノルマなし、服装・髪型・ネイル自由（ショップの雰囲気に合っていれば着用ブランドは問いません）",応募フォームまたは希望店舗へお電話にてご応募ください。,"希望店舗または下記までお電話ください。
052-531-9143（本社採用課）",part_time,recruit_detail,publish
イオン那覇　「SOFIA.」,okinawa,okinawa,沖縄県那覇市金城５－１０－２　イオン那覇　　　　　　　　　　,Fashion advisor,レディスアパレル・アクセサリー・ファッション雑貨の接客販売を中心に、商品整理やディスプレイの変更補助など、店舗業務全般に携わっていただきます。, parttime_work,時給９００円～,高卒以上、年齢不問、経験不問、長期勤務できる方歓迎、学生・フリーター歓迎、扶養内勤務OK,応相談、シフト自己申告制（1カ月単位）、週３日～勤務OK、平日のみ勤務OK、土日祝のみ勤務OK,9:30～22:00、１５時まで勤務OK、夕方～閉店まで勤務OK、実働５時間～勤務歓迎,"スタッフ割引あり、昇給あり、報奨金制度あり、社員登用制度あり、交通費支給（1,000円／日）、
※車通勤の可否は店舗により異なりますので詳しくはお問い合わせください。
ノルマなし、服装・髪型・ネイル自由（ショップの雰囲気に合っていれば着用ブランドは問いません）",応募フォームまたは希望店舗へお電話にてご応募ください。,"希望店舗または下記までお電話ください。
052-531-9143（本社採用課）",part_time,recruit_detail,publish
イオン具志川　「SCOTCLUB・MAITRESSE」,okinawa,okinawa,沖縄県うるま市字前原幸崎原３０３　イオン具志川１Ｆ　　　　　　　　　　　　　　　　　　,Fashion advisor,レディスアパレル・アクセサリー・ファッション雑貨の接客販売を中心に、商品整理やディスプレイの変更補助など、店舗業務全般に携わっていただきます。, parttime_work,時給９００円～,高卒以上、年齢不問、経験不問、長期勤務できる方歓迎、学生・フリーター歓迎、扶養内勤務OK,応相談、シフト自己申告制（1カ月単位）、週３日～勤務OK、平日のみ勤務OK、土日祝のみ勤務OK,9:30～22:00、１５時まで勤務OK、夕方～閉店まで勤務OK、実働５時間～勤務歓迎,"スタッフ割引あり、昇給あり、報奨金制度あり、社員登用制度あり、交通費支給（1,000円／日）、
※車通勤の可否は店舗により異なりますので詳しくはお問い合わせください。
ノルマなし、服装・髪型・ネイル自由（ショップの雰囲気に合っていれば着用ブランドは問いません）",応募フォームまたは希望店舗へお電話にてご応募ください。,"希望店舗または下記までお電話ください。
052-531-9143（本社採用課）",part_time,recruit_detail,publish
那覇メインプレイス　「GRANDTABLE・CAREN]」,okinawa,okinawa,沖縄県那覇市おもろまち４－４－９　那覇メインプレイス１Ｆ　　　　,Fashion advisor,レディスアパレル・アクセサリー・ファッション雑貨の接客販売を中心に、商品整理やディスプレイの変更補助など、店舗業務全般に携わっていただきます。, parttime_work,時給９００円～,高卒以上、年齢不問、経験不問、長期勤務できる方歓迎、学生・フリーター歓迎、扶養内勤務OK,応相談、シフト自己申告制（1カ月単位）、週３日～勤務OK、平日のみ勤務OK、土日祝のみ勤務OK,8:30～22:00、１５時まで勤務OK、夕方～閉店まで勤務OK、実働５時間～勤務歓迎,"スタッフ割引あり、昇給あり、報奨金制度あり、社員登用制度あり、交通費支給（1,000円／日）、
※車通勤の可否は店舗により異なりますので詳しくはお問い合わせください。
ノルマなし、服装・髪型・ネイル自由（ショップの雰囲気に合っていれば着用ブランドは問いません）",応募フォームまたは希望店舗へお電話にてご応募ください。,"希望店舗または下記までお電話ください。
052-531-9143（本社採用課）",part_time,recruit_detail,publish
イオン南風原　「Petit Maison」,okinawa,okinawa,沖縄県島尻郡南風原町字宮平２６４　イオン南風原１Ｆ　　　　,Fashion advisor,レディスアパレル・アクセサリー・ファッション雑貨の接客販売を中心に、商品整理やディスプレイの変更補助など、店舗業務全般に携わっていただきます。, parttime_work,時給９００円～,高卒以上、年齢不問、経験不問、長期勤務できる方歓迎、学生・フリーター歓迎、扶養内勤務OK,応相談、シフト自己申告制（1カ月単位）、週３日～勤務OK、平日のみ勤務OK、土日祝のみ勤務OK,9:30～22:00、１５時まで勤務OK、夕方～閉店まで勤務OK、実働５時間～勤務歓迎,"スタッフ割引あり、昇給あり、報奨金制度あり、社員登用制度あり、交通費支給（1,000円／日）、
※車通勤の可否は店舗により異なりますので詳しくはお問い合わせください。
ノルマなし、服装・髪型・ネイル自由（ショップの雰囲気に合っていれば着用ブランドは問いません）",応募フォームまたは希望店舗へお電話にてご応募ください。,"希望店舗または下記までお電話ください。
052-531-9143（本社採用課）",part_time,recruit_detail,publish
浦添 PARCO CITY　「MEDOC」,okinawa,okinawa,沖縄県浦添市西洲３－１－１　サンエーパルコシティー２Ｆ　　　　　　　　　　,Fashion advisor,レディスアパレル・アクセサリー・ファッション雑貨の接客販売を中心に、商品整理やディスプレイの変更補助など、店舗業務全般に携わっていただきます。, parttime_work,時給９００円～,高卒以上、年齢不問、経験不問、長期勤務できる方歓迎、学生・フリーター歓迎、扶養内勤務OK,応相談、シフト自己申告制（1カ月単位）、週３日～勤務OK、平日のみ勤務OK、土日祝のみ勤務OK,9:30～22:00、１５時まで勤務OK、夕方～閉店まで勤務OK、実働５時間～勤務歓迎,"スタッフ割引あり、昇給あり、報奨金制度あり、社員登用制度あり、交通費支給（1,000円／日）、
※車通勤の可否は店舗により異なりますので詳しくはお問い合わせください。
ノルマなし、服装・髪型・ネイル自由（ショップの雰囲気に合っていれば着用ブランドは問いません）",応募フォームまたは希望店舗へお電話にてご応募ください。,"希望店舗または下記までお電話ください。
052-531-9143（本社採用課）",part_time,recruit_detail,publish